,Partida,Partida_Bonita,Periodo,Ppto_inicial_Real,Ejec_Acum_Real,Diferencia_Porcentual,pct_aux,Ejec_Acum_Real_Bonita,Ppto_inicial_Real_Bonito,Dif_Pct_texto
0,Congreso Nacional,Congreso Nacional,2009,100263000,105909000,0.05631189970377906,5.63,$105.909.000,$100.263.000,Este organismo gastó un 5.63% más de lo presupuestado originalmente
1,Congreso Nacional,Congreso Nacional,2010,105709000,109993000,0.04052635064185642,4.05,$109.993.000,$105.709.000,Este organismo gastó un 4.05% más de lo presupuestado originalmente
2,Congreso Nacional,Congreso Nacional,2011,108646000,107463000,-0.010888573900557775,1.09,$107.463.000,$108.646.000,Este organismo gastó un 1.09% menos de lo presupuestado originalmente
3,Congreso Nacional,Congreso Nacional,2012,113880000,117873000,0.03506322444678609,3.51,$117.873.000,$113.880.000,Este organismo gastó un 3.51% más de lo presupuestado originalmente
4,Congreso Nacional,Congreso Nacional,2013,115963000,120906000,0.04262566508282814,4.26,$120.906.000,$115.963.000,Este organismo gastó un 4.26% más de lo presupuestado originalmente
5,Congreso Nacional,Congreso Nacional,2014,117667000,126353000,0.0738184877663236,7.38,$126.353.000,$117.667.000,Este organismo gastó un 7.38% más de lo presupuestado originalmente
6,Congreso Nacional,Congreso Nacional,2015,119500000,126191000,0.05599163179916318,5.6,$126.191.000,$119.500.000,Este organismo gastó un 5.6% más de lo presupuestado originalmente
7,Congreso Nacional,Congreso Nacional,2016,117854000,120481000,0.022290291377467037,2.23,$120.481.000,$117.854.000,Este organismo gastó un 2.23% más de lo presupuestado originalmente
8,Congreso Nacional,Congreso Nacional,2017,118556000,119068000,0.004318634231924154,0.43,$119.068.000,$118.556.000,Este organismo gastó un 0.43% más de lo presupuestado originalmente
9,Contraloría General,Contraloria General De La Republica,2009,50514000,64237000,0.27166726056142854,27.17,$64.237.000,$50.514.000,Este organismo gastó un 27.17% más de lo presupuestado originalmente
10,Contraloría General,Contraloria General De La Republica,2010,57846000,69432000,0.20029042630432528,20.03,$69.432.000,$57.846.000,Este organismo gastó un 20.03% más de lo presupuestado originalmente
11,Contraloría General,Contraloria General De La Republica,2011,60001000,74935000,0.2488958517358044,24.89,$74.935.000,$60.001.000,Este organismo gastó un 24.89% más de lo presupuestado originalmente
12,Contraloría General,Contraloria General De La Republica,2012,62727000,74135000,0.1818674573947423,18.19,$74.135.000,$62.727.000,Este organismo gastó un 18.19% más de lo presupuestado originalmente
13,Contraloría General,Contraloria General De La Republica,2013,66267000,80718000,0.2180723437004844,21.81,$80.718.000,$66.267.000,Este organismo gastó un 21.81% más de lo presupuestado originalmente
14,Contraloría General,Contraloria General De La Republica,2014,69401000,87982000,0.2677338943242893,26.77,$87.982.000,$69.401.000,Este organismo gastó un 26.77% más de lo presupuestado originalmente
15,Contraloría General,Contraloria General De La Republica,2015,71375000,89032000,0.24738353765323992,24.74,$89.032.000,$71.375.000,Este organismo gastó un 24.74% más de lo presupuestado originalmente
16,Contraloría General,Contraloria General De La Republica,2016,71249000,82082000,0.15204423921739252,15.2,$82.082.000,$71.249.000,Este organismo gastó un 15.2% más de lo presupuestado originalmente
17,Contraloría General,Contraloria General De La Republica,2017,73193000,84146000,0.1496454578989794,14.96,$84.146.000,$73.193.000,Este organismo gastó un 14.96% más de lo presupuestado originalmente
18,M. De Agricultura,Ministerio De Agricultura,2009,446882000,476563000,0.06641798058547894,6.64,$476.563.000,$446.882.000,Este organismo gastó un 6.64% más de lo presupuestado originalmente
19,M. De Agricultura,Ministerio De Agricultura,2010,459984000,468032000,0.017496260739503982,1.75,$468.032.000,$459.984.000,Este organismo gastó un 1.75% más de lo presupuestado originalmente
20,M. De Agricultura,Ministerio De Agricultura,2011,478769000,494810000,0.03350467553245929,3.35,$494.810.000,$478.769.000,Este organismo gastó un 3.35% más de lo presupuestado originalmente
21,M. De Agricultura,Ministerio De Agricultura,2012,478520000,528886000,0.10525369890495695,10.53,$528.886.000,$478.520.000,Este organismo gastó un 10.53% más de lo presupuestado originalmente
22,M. De Agricultura,Ministerio De Agricultura,2013,502107000,544438000,0.08430673143373822,8.43,$544.438.000,$502.107.000,Este organismo gastó un 8.43% más de lo presupuestado originalmente
23,M. De Agricultura,Ministerio De Agricultura,2014,502679000,568958000,0.13185153945161823,13.19,$568.958.000,$502.679.000,Este organismo gastó un 13.19% más de lo presupuestado originalmente
24,M. De Agricultura,Ministerio De Agricultura,2015,530515000,588761000,0.1097914290830608,10.98,$588.761.000,$530.515.000,Este organismo gastó un 10.98% más de lo presupuestado originalmente
25,M. De Agricultura,Ministerio De Agricultura,2016,557865000,590873000,0.05916843680818836,5.92,$590.873.000,$557.865.000,Este organismo gastó un 5.92% más de lo presupuestado originalmente
26,M. De Agricultura,Ministerio De Agricultura,2017,564985000,616334000,0.09088559873270972,9.09,$616.334.000,$564.985.000,Este organismo gastó un 9.09% más de lo presupuestado originalmente
27,M. De Bienes Nacionales,Ministerio De Bienes Nacionales,2009,20928000,57060000,1.7264908256880733,172.65,$57.060.000,$20.928.000,Este organismo gastó un 172.65% más de lo presupuestado originalmente
28,M. De Bienes Nacionales,Ministerio De Bienes Nacionales,2010,33295000,52838000,0.5869650097612255,58.7,$52.838.000,$33.295.000,Este organismo gastó un 58.7% más de lo presupuestado originalmente
29,M. De Bienes Nacionales,Ministerio De Bienes Nacionales,2011,36184000,44938000,0.2419301348662392,24.19,$44.938.000,$36.184.000,Este organismo gastó un 24.19% más de lo presupuestado originalmente
30,M. De Bienes Nacionales,Ministerio De Bienes Nacionales,2012,26365000,53974000,1.0471837663569126,104.72,$53.974.000,$26.365.000,Este organismo gastó un 104.72% más de lo presupuestado originalmente
31,M. De Bienes Nacionales,Ministerio De Bienes Nacionales,2013,31209000,51104000,0.6374763689961229,63.75,$51.104.000,$31.209.000,Este organismo gastó un 63.75% más de lo presupuestado originalmente
32,M. De Bienes Nacionales,Ministerio De Bienes Nacionales,2014,38078000,46401000,0.21857765638951626,21.86,$46.401.000,$38.078.000,Este organismo gastó un 21.86% más de lo presupuestado originalmente
33,M. De Bienes Nacionales,Ministerio De Bienes Nacionales,2015,39287000,49557000,0.2614096265940387,26.14,$49.557.000,$39.287.000,Este organismo gastó un 26.14% más de lo presupuestado originalmente
34,M. De Bienes Nacionales,Ministerio De Bienes Nacionales,2016,39654000,43530000,0.0977454985625662,9.77,$43.530.000,$39.654.000,Este organismo gastó un 9.77% más de lo presupuestado originalmente
35,M. De Bienes Nacionales,Ministerio De Bienes Nacionales,2017,39905000,39213000,-0.01734118531512342,1.73,$39.213.000,$39.905.000,Este organismo gastó un 1.73% menos de lo presupuestado originalmente
36,M. De Defensa Nacional,Ministerio De Defensa Nacional,2009,2213803000,2369904000,0.0705125975527181,7.05,$2.369.904.000,$2.213.803.000,Este organismo gastó un 7.05% más de lo presupuestado originalmente
37,M. De Defensa Nacional,Ministerio De Defensa Nacional,2010,2452594000,2611194000,0.06466622686021413,6.47,$2.611.194.000,$2.452.594.000,Este organismo gastó un 6.47% más de lo presupuestado originalmente
38,M. De Defensa Nacional,Ministerio De Defensa Nacional,2011,2775494000,2822324000,0.01687267203604115,1.69,$2.822.324.000,$2.775.494.000,Este organismo gastó un 1.69% más de lo presupuestado originalmente
39,M. De Defensa Nacional,Ministerio De Defensa Nacional,2012,1555243000,1624309000,0.04440849436390326,4.44,$1.624.309.000,$1.555.243.000,Este organismo gastó un 4.44% más de lo presupuestado originalmente
40,M. De Defensa Nacional,Ministerio De Defensa Nacional,2013,1614709000,1681060000,0.04109161465007007,4.11,$1.681.060.000,$1.614.709.000,Este organismo gastó un 4.11% más de lo presupuestado originalmente
41,M. De Defensa Nacional,Ministerio De Defensa Nacional,2014,1688508000,1716838000,0.016778126014208992,1.68,$1.716.838.000,$1.688.508.000,Este organismo gastó un 1.68% más de lo presupuestado originalmente
42,M. De Defensa Nacional,Ministerio De Defensa Nacional,2015,1751042000,1786955000,0.020509502342034056,2.05,$1.786.955.000,$1.751.042.000,Este organismo gastó un 2.05% más de lo presupuestado originalmente
43,M. De Defensa Nacional,Ministerio De Defensa Nacional,2016,1768637000,1872242000,0.05857900745036997,5.86,$1.872.242.000,$1.768.637.000,Este organismo gastó un 5.86% más de lo presupuestado originalmente
44,M. De Defensa Nacional,Ministerio De Defensa Nacional,2017,1829875000,1804981000,-0.013604207937700662,1.36,$1.804.981.000,$1.829.875.000,Este organismo gastó un 1.36% menos de lo presupuestado originalmente
45,M. De Desarrollo Social,Ministerio De Desarrollo Social,2009,396959000,435552000,0.0972216274224794,9.72,$435.552.000,$396.959.000,Este organismo gastó un 9.72% más de lo presupuestado originalmente
46,M. De Desarrollo Social,Ministerio De Desarrollo Social,2010,427569000,400761000,-0.0626986521473727,6.27,$400.761.000,$427.569.000,Este organismo gastó un 6.27% menos de lo presupuestado originalmente
47,M. De Desarrollo Social,Ministerio De Desarrollo Social,2011,517608000,526495000,0.01716936368835103,1.72,$526.495.000,$517.608.000,Este organismo gastó un 1.72% más de lo presupuestado originalmente
48,M. De Desarrollo Social,Ministerio De Desarrollo Social,2012,549789000,566542000,0.03047169004836401,3.05,$566.542.000,$549.789.000,Este organismo gastó un 3.05% más de lo presupuestado originalmente
49,M. De Desarrollo Social,Ministerio De Desarrollo Social,2013,580853000,586041000,0.00893169183941548,0.89,$586.041.000,$580.853.000,Este organismo gastó un 0.89% más de lo presupuestado originalmente
50,M. De Desarrollo Social,Ministerio De Desarrollo Social,2014,584735000,620261000,0.06075572695323522,6.08,$620.261.000,$584.735.000,Este organismo gastó un 6.08% más de lo presupuestado originalmente
51,M. De Desarrollo Social,Ministerio De Desarrollo Social,2015,655242000,692212000,0.0564219021369204,5.64,$692.212.000,$655.242.000,Este organismo gastó un 5.64% más de lo presupuestado originalmente
52,M. De Desarrollo Social,Ministerio De Desarrollo Social,2016,666513000,660518000,-0.008994573249133926,0.9,$660.518.000,$666.513.000,Este organismo gastó un 0.9% menos de lo presupuestado originalmente
53,M. De Desarrollo Social,Ministerio De Desarrollo Social,2017,640836000,647930000,0.011069914923631007,1.11,$647.930.000,$640.836.000,Este organismo gastó un 1.11% más de lo presupuestado originalmente
54,"M. De Economia, Fomento Y Turismo","Ministerio De Economia, Fomento Y Turismo",2009,1701039000,1925745000,0.13209926403803793,13.21,$1.925.745.000,$1.701.039.000,Este organismo gastó un 13.21% más de lo presupuestado originalmente
55,"M. De Economia, Fomento Y Turismo","Ministerio De Economia, Fomento Y Turismo",2010,1889362000,1495378000,-0.2085275346916049,20.85,$1.495.378.000,$1.889.362.000,Este organismo gastó un 20.85% menos de lo presupuestado originalmente
56,"M. De Economia, Fomento Y Turismo","Ministerio De Economia, Fomento Y Turismo",2011,1579976000,2532660000,0.6029737160564465,60.3,$2.532.660.000,$1.579.976.000,Este organismo gastó un 60.3% más de lo presupuestado originalmente
57,"M. De Economia, Fomento Y Turismo","Ministerio De Economia, Fomento Y Turismo",2012,1569955000,822955000,-0.4758098162049231,47.58,$822.955.000,$1.569.955.000,Este organismo gastó un 47.58% menos de lo presupuestado originalmente
58,"M. De Economia, Fomento Y Turismo","Ministerio De Economia, Fomento Y Turismo",2013,1648864000,1608310000,-0.02459511518233159,2.46,$1.608.310.000,$1.648.864.000,Este organismo gastó un 2.46% menos de lo presupuestado originalmente
59,"M. De Economia, Fomento Y Turismo","Ministerio De Economia, Fomento Y Turismo",2014,1202883000,1784617000,0.4836164448246421,48.36,$1.784.617.000,$1.202.883.000,Este organismo gastó un 48.36% más de lo presupuestado originalmente
60,"M. De Economia, Fomento Y Turismo","Ministerio De Economia, Fomento Y Turismo",2015,1142953000,1237198000,0.08245745888063638,8.25,$1.237.198.000,$1.142.953.000,Este organismo gastó un 8.25% más de lo presupuestado originalmente
61,"M. De Economia, Fomento Y Turismo","Ministerio De Economia, Fomento Y Turismo",2016,1467531000,1298582000,-0.1151246549476638,11.51,$1.298.582.000,$1.467.531.000,Este organismo gastó un 11.51% menos de lo presupuestado originalmente
62,"M. De Economia, Fomento Y Turismo","Ministerio De Economia, Fomento Y Turismo",2017,1392725000,1424023000,0.022472490979913478,2.25,$1.424.023.000,$1.392.725.000,Este organismo gastó un 2.25% más de lo presupuestado originalmente
63,M. De Educacion,Ministerio De Educacion,2009,5264753000,5453737000,0.03589608097473899,3.59,$5.453.737.000,$5.264.753.000,Este organismo gastó un 3.59% más de lo presupuestado originalmente
64,M. De Educacion,Ministerio De Educacion,2010,5997564000,6126353000,0.021473551595281016,2.15,$6.126.353.000,$5.997.564.000,Este organismo gastó un 2.15% más de lo presupuestado originalmente
65,M. De Educacion,Ministerio De Educacion,2011,6589551000,6321611000,-0.04066134399748936,4.07,$6.321.611.000,$6.589.551.000,Este organismo gastó un 4.07% menos de lo presupuestado originalmente
66,M. De Educacion,Ministerio De Educacion,2012,7078385000,6858628000,-0.031046206161433717,3.1,$6.858.628.000,$7.078.385.000,Este organismo gastó un 3.1% menos de lo presupuestado originalmente
67,M. De Educacion,Ministerio De Educacion,2013,7848675000,7439822000,-0.05209197730827178,5.21,$7.439.822.000,$7.848.675.000,Este organismo gastó un 5.21% menos de lo presupuestado originalmente
68,M. De Educacion,Ministerio De Educacion,2014,7963994000,7841830000,-0.015339539432099019,1.53,$7.841.830.000,$7.963.994.000,Este organismo gastó un 1.53% menos de lo presupuestado originalmente
69,M. De Educacion,Ministerio De Educacion,2015,8570556000,8597285000,0.0031187008170765118,0.31,$8.597.285.000,$8.570.556.000,Este organismo gastó un 0.31% más de lo presupuestado originalmente
70,M. De Educacion,Ministerio De Educacion,2016,9583972000,9596834000,0.0013420323014299291,0.13,$9.596.834.000,$9.583.972.000,Este organismo gastó un 0.13% más de lo presupuestado originalmente
71,M. De Educacion,Ministerio De Educacion,2017,10325071000,9925554000,-0.03869387435689304,3.87,$9.925.554.000,$10.325.071.000,Este organismo gastó un 3.87% menos de lo presupuestado originalmente
72,M. De Energia,Ministerio De Energia,2011,72520000,70082000,-0.03361831218974076,3.36,$70.082.000,$72.520.000,Este organismo gastó un 3.36% menos de lo presupuestado originalmente
73,M. De Energia,Ministerio De Energia,2012,49108000,53083000,0.08094404170399935,8.09,$53.083.000,$49.108.000,Este organismo gastó un 8.09% más de lo presupuestado originalmente
74,M. De Energia,Ministerio De Energia,2013,88269000,85241000,-0.03430422911781033,3.43,$85.241.000,$88.269.000,Este organismo gastó un 3.43% menos de lo presupuestado originalmente
75,M. De Energia,Ministerio De Energia,2014,90940000,114554000,0.2596657136573565,25.97,$114.554.000,$90.940.000,Este organismo gastó un 25.97% más de lo presupuestado originalmente
76,M. De Energia,Ministerio De Energia,2015,135154000,142736000,0.05609896858398568,5.61,$142.736.000,$135.154.000,Este organismo gastó un 5.61% más de lo presupuestado originalmente
77,M. De Energia,Ministerio De Energia,2016,149167000,160107000,0.07334061823325534,7.33,$160.107.000,$149.167.000,Este organismo gastó un 7.33% más de lo presupuestado originalmente
78,M. De Energia,Ministerio De Energia,2017,148738000,155779000,0.04733827266737485,4.73,$155.779.000,$148.738.000,Este organismo gastó un 4.73% más de lo presupuestado originalmente
79,M. De Hacienda,Ministerio De Hacienda,2009,348129000,470552000,0.35165987320792,35.17,$470.552.000,$348.129.000,Este organismo gastó un 35.17% más de lo presupuestado originalmente
80,M. De Hacienda,Ministerio De Hacienda,2010,376784000,487106000,0.29279905728481037,29.28,$487.106.000,$376.784.000,Este organismo gastó un 29.28% más de lo presupuestado originalmente
81,M. De Hacienda,Ministerio De Hacienda,2011,402961000,495887000,0.23060792483639855,23.06,$495.887.000,$402.961.000,Este organismo gastó un 23.06% más de lo presupuestado originalmente
82,M. De Hacienda,Ministerio De Hacienda,2012,388272000,484758000,0.24850105080974164,24.85,$484.758.000,$388.272.000,Este organismo gastó un 24.85% más de lo presupuestado originalmente
83,M. De Hacienda,Ministerio De Hacienda,2013,388053000,488176000,0.25801372492932667,25.8,$488.176.000,$388.053.000,Este organismo gastó un 25.8% más de lo presupuestado originalmente
84,M. De Hacienda,Ministerio De Hacienda,2014,382917000,484249000,0.2646317609299143,26.46,$484.249.000,$382.917.000,Este organismo gastó un 26.46% más de lo presupuestado originalmente
85,M. De Hacienda,Ministerio De Hacienda,2015,430967000,526996000,0.22282216503815838,22.28,$526.996.000,$430.967.000,Este organismo gastó un 22.28% más de lo presupuestado originalmente
86,M. De Hacienda,Ministerio De Hacienda,2016,489428000,550452000,0.12468432537574475,12.47,$550.452.000,$489.428.000,Este organismo gastó un 12.47% más de lo presupuestado originalmente
87,M. De Hacienda,Ministerio De Hacienda,2017,494624000,580227000,0.17306681438830304,17.31,$580.227.000,$494.624.000,Este organismo gastó un 17.31% más de lo presupuestado originalmente
88,M. De Justicia Y Derechos Humanos,Ministerio De Justicia Y Derechos Humanos,2009,732199000,787172000,0.07507931586904652,7.51,$787.172.000,$732.199.000,Este organismo gastó un 7.51% más de lo presupuestado originalmente
89,M. De Justicia Y Derechos Humanos,Ministerio De Justicia Y Derechos Humanos,2010,797161000,816466000,0.02421719075569427,2.42,$816.466.000,$797.161.000,Este organismo gastó un 2.42% más de lo presupuestado originalmente
90,M. De Justicia Y Derechos Humanos,Ministerio De Justicia Y Derechos Humanos,2011,868556000,880804000,0.01410156627782204,1.41,$880.804.000,$868.556.000,Este organismo gastó un 1.41% más de lo presupuestado originalmente
91,M. De Justicia Y Derechos Humanos,Ministerio De Justicia Y Derechos Humanos,2012,918797000,929169000,0.01128867421204031,1.13,$929.169.000,$918.797.000,Este organismo gastó un 1.13% más de lo presupuestado originalmente
92,M. De Justicia Y Derechos Humanos,Ministerio De Justicia Y Derechos Humanos,2013,957074000,948305000,-0.009162300929708675,0.92,$948.305.000,$957.074.000,Este organismo gastó un 0.92% menos de lo presupuestado originalmente
93,M. De Justicia Y Derechos Humanos,Ministerio De Justicia Y Derechos Humanos,2014,965467000,1023333000,0.05993576165731195,5.99,$1.023.333.000,$965.467.000,Este organismo gastó un 5.99% más de lo presupuestado originalmente
94,M. De Justicia Y Derechos Humanos,Ministerio De Justicia Y Derechos Humanos,2015,1050021000,1123595000,0.07006907480898002,7.01,$1.123.595.000,$1.050.021.000,Este organismo gastó un 7.01% más de lo presupuestado originalmente
95,M. De Justicia Y Derechos Humanos,Ministerio De Justicia Y Derechos Humanos,2016,1100422000,1134224000,0.030717306633273416,3.07,$1.134.224.000,$1.100.422.000,Este organismo gastó un 3.07% más de lo presupuestado originalmente
96,M. De Justicia Y Derechos Humanos,Ministerio De Justicia Y Derechos Humanos,2017,1127970000,1182244000,0.048116527921841894,4.81,$1.182.244.000,$1.127.970.000,Este organismo gastó un 4.81% más de lo presupuestado originalmente
97,M. De La Mujer Y La Equidad De Genero,Ministerio De La Mujer Y La Equidad De Genero,2016,0,23850000,inf,inf,$23.850.000,$0,Este organismo gastó un inf% más de lo presupuestado originalmente
98,M. De La Mujer Y La Equidad De Genero,Ministerio De La Mujer Y La Equidad De Genero,2017,52223000,50790000,-0.02744001685081286,2.74,$50.790.000,$52.223.000,Este organismo gastó un 2.74% menos de lo presupuestado originalmente
99,M. De Mineria,Ministerio De Mineria,2009,77841000,78367000,0.006757364370961318,0.68,$78.367.000,$77.841.000,Este organismo gastó un 0.68% más de lo presupuestado originalmente
100,M. De Mineria,Ministerio De Mineria,2010,97805000,45013000,-0.5397679055263024,53.98,$45.013.000,$97.805.000,Este organismo gastó un 53.98% menos de lo presupuestado originalmente
101,M. De Mineria,Ministerio De Mineria,2011,40595000,41533000,0.023106293878556474,2.31,$41.533.000,$40.595.000,Este organismo gastó un 2.31% más de lo presupuestado originalmente
102,M. De Mineria,Ministerio De Mineria,2012,40975000,49428000,0.20629652226967662,20.63,$49.428.000,$40.975.000,Este organismo gastó un 20.63% más de lo presupuestado originalmente
103,M. De Mineria,Ministerio De Mineria,2013,41215000,48230000,0.17020502244328523,17.02,$48.230.000,$41.215.000,Este organismo gastó un 17.02% más de lo presupuestado originalmente
104,M. De Mineria,Ministerio De Mineria,2014,41619000,46469000,0.11653331411134338,11.65,$46.469.000,$41.619.000,Este organismo gastó un 11.65% más de lo presupuestado originalmente
105,M. De Mineria,Ministerio De Mineria,2015,44408000,52545000,0.18323275085570168,18.32,$52.545.000,$44.408.000,Este organismo gastó un 18.32% más de lo presupuestado originalmente
106,M. De Mineria,Ministerio De Mineria,2016,47263000,50337000,0.06504030637073398,6.5,$50.337.000,$47.263.000,Este organismo gastó un 6.5% más de lo presupuestado originalmente
107,M. De Mineria,Ministerio De Mineria,2017,71694000,50704000,-0.29277205902864956,29.28,$50.704.000,$71.694.000,Este organismo gastó un 29.28% menos de lo presupuestado originalmente
108,M. De Obras Publicas,Ministerio De Obras Publicas,2009,1900312000,1982719000,0.043364984276266214,4.34,$1.982.719.000,$1.900.312.000,Este organismo gastó un 4.34% más de lo presupuestado originalmente
109,M. De Obras Publicas,Ministerio De Obras Publicas,2010,1974615000,1898503000,-0.038545235400318546,3.85,$1.898.503.000,$1.974.615.000,Este organismo gastó un 3.85% menos de lo presupuestado originalmente
110,M. De Obras Publicas,Ministerio De Obras Publicas,2011,2056973000,2161380000,0.05075759380409952,5.08,$2.161.380.000,$2.056.973.000,Este organismo gastó un 5.08% más de lo presupuestado originalmente
111,M. De Obras Publicas,Ministerio De Obras Publicas,2012,1999018000,2158254000,0.07965711164181613,7.97,$2.158.254.000,$1.999.018.000,Este organismo gastó un 7.97% más de lo presupuestado originalmente
112,M. De Obras Publicas,Ministerio De Obras Publicas,2013,2114547000,2270457000,0.07373210432305359,7.37,$2.270.457.000,$2.114.547.000,Este organismo gastó un 7.37% más de lo presupuestado originalmente
113,M. De Obras Publicas,Ministerio De Obras Publicas,2014,2068272000,2372942000,0.14730654382015518,14.73,$2.372.942.000,$2.068.272.000,Este organismo gastó un 14.73% más de lo presupuestado originalmente
114,M. De Obras Publicas,Ministerio De Obras Publicas,2015,2283373000,2542177000,0.11334284849650057,11.33,$2.542.177.000,$2.283.373.000,Este organismo gastó un 11.33% más de lo presupuestado originalmente
115,M. De Obras Publicas,Ministerio De Obras Publicas,2016,2355263000,2569830000,0.0911010787330332,9.11,$2.569.830.000,$2.355.263.000,Este organismo gastó un 9.11% más de lo presupuestado originalmente
116,M. De Obras Publicas,Ministerio De Obras Publicas,2017,2285104000,2464265000,0.07840387133364608,7.84,$2.464.265.000,$2.285.104.000,Este organismo gastó un 7.84% más de lo presupuestado originalmente
117,M. De Relaciones Exteriores,Ministerio De Relaciones Exteriores,2009,193126000,218372000,0.1307229477128921,13.07,$218.372.000,$193.126.000,Este organismo gastó un 13.07% más de lo presupuestado originalmente
118,M. De Relaciones Exteriores,Ministerio De Relaciones Exteriores,2010,190441000,221145000,0.16122578646404923,16.12,$221.145.000,$190.441.000,Este organismo gastó un 16.12% más de lo presupuestado originalmente
119,M. De Relaciones Exteriores,Ministerio De Relaciones Exteriores,2011,279700000,330315000,0.18096174472649268,18.1,$330.315.000,$279.700.000,Este organismo gastó un 18.1% más de lo presupuestado originalmente
120,M. De Relaciones Exteriores,Ministerio De Relaciones Exteriores,2012,181057000,190548000,0.05241995614640693,5.24,$190.548.000,$181.057.000,Este organismo gastó un 5.24% más de lo presupuestado originalmente
121,M. De Relaciones Exteriores,Ministerio De Relaciones Exteriores,2013,186928000,209180000,0.11904048617649576,11.9,$209.180.000,$186.928.000,Este organismo gastó un 11.9% más de lo presupuestado originalmente
122,M. De Relaciones Exteriores,Ministerio De Relaciones Exteriores,2014,213535000,223177000,0.04515419017959585,4.52,$223.177.000,$213.535.000,Este organismo gastó un 4.52% más de lo presupuestado originalmente
123,M. De Relaciones Exteriores,Ministerio De Relaciones Exteriores,2015,240849000,247286000,0.026726289085692696,2.67,$247.286.000,$240.849.000,Este organismo gastó un 2.67% más de lo presupuestado originalmente
124,M. De Relaciones Exteriores,Ministerio De Relaciones Exteriores,2016,238452000,233237000,-0.021870229647895593,2.19,$233.237.000,$238.452.000,Este organismo gastó un 2.19% menos de lo presupuestado originalmente
125,M. De Relaciones Exteriores,Ministerio De Relaciones Exteriores,2017,230238000,229036000,-0.005220684682806487,0.52,$229.036.000,$230.238.000,Este organismo gastó un 0.52% menos de lo presupuestado originalmente
126,M. De Salud,Ministerio De Salud,2009,8853088000,10507144000,0.18683379177977222,18.68,$10.507.144.000,$8.853.088.000,Este organismo gastó un 18.68% más de lo presupuestado originalmente
127,M. De Salud,Ministerio De Salud,2010,9638079000,11498717000,0.19305071062397391,19.31,$11.498.717.000,$9.638.079.000,Este organismo gastó un 19.31% más de lo presupuestado originalmente
128,M. De Salud,Ministerio De Salud,2011,10945128000,12015776000,0.09781959607964384,9.78,$12.015.776.000,$10.945.128.000,Este organismo gastó un 9.78% más de lo presupuestado originalmente
129,M. De Salud,Ministerio De Salud,2012,11722100000,12929084000,0.1029665333003472,10.3,$12.929.084.000,$11.722.100.000,Este organismo gastó un 10.3% más de lo presupuestado originalmente
130,M. De Salud,Ministerio De Salud,2013,12782550000,14247328000,0.11459200237824221,11.46,$14.247.328.000,$12.782.550.000,Este organismo gastó un 11.46% más de lo presupuestado originalmente
131,M. De Salud,Ministerio De Salud,2014,13659275000,15460631000,0.13187786321016307,13.19,$15.460.631.000,$13.659.275.000,Este organismo gastó un 13.19% más de lo presupuestado originalmente
132,M. De Salud,Ministerio De Salud,2015,14939718000,17392581000,0.16418402275063024,16.42,$17.392.581.000,$14.939.718.000,Este organismo gastó un 16.42% más de lo presupuestado originalmente
133,M. De Salud,Ministerio De Salud,2016,16028530000,18356974000,0.1452687177177196,14.53,$18.356.974.000,$16.028.530.000,Este organismo gastó un 14.53% más de lo presupuestado originalmente
134,M. De Salud,Ministerio De Salud,2017,17396266000,20199086000,0.16111618435818353,16.11,$20.199.086.000,$17.396.266.000,Este organismo gastó un 16.11% más de lo presupuestado originalmente
135,M. De Transportes Y Telecom.,Ministerio De Transportes Y Telecomunicaciones,2009,424745000,369932000,-0.12904919422241581,12.9,$369.932.000,$424.745.000,Este organismo gastó un 12.9% menos de lo presupuestado originalmente
136,M. De Transportes Y Telecom.,Ministerio De Transportes Y Telecomunicaciones,2010,791558000,839110000,0.06007393014788556,6.01,$839.110.000,$791.558.000,Este organismo gastó un 6.01% más de lo presupuestado originalmente
137,M. De Transportes Y Telecom.,Ministerio De Transportes Y Telecomunicaciones,2011,828760000,873947000,0.05452362565760896,5.45,$873.947.000,$828.760.000,Este organismo gastó un 5.45% más de lo presupuestado originalmente
138,M. De Transportes Y Telecom.,Ministerio De Transportes Y Telecomunicaciones,2012,766466000,851063000,0.11037280192467767,11.04,$851.063.000,$766.466.000,Este organismo gastó un 11.04% más de lo presupuestado originalmente
139,M. De Transportes Y Telecom.,Ministerio De Transportes Y Telecomunicaciones,2013,855963000,878150000,0.025920512919366843,2.59,$878.150.000,$855.963.000,Este organismo gastó un 2.59% más de lo presupuestado originalmente
140,M. De Transportes Y Telecom.,Ministerio De Transportes Y Telecomunicaciones,2014,797876000,907710000,0.13765798194205617,13.77,$907.710.000,$797.876.000,Este organismo gastó un 13.77% más de lo presupuestado originalmente
141,M. De Transportes Y Telecom.,Ministerio De Transportes Y Telecomunicaciones,2015,965545000,1025318000,0.061905970203356656,6.19,$1.025.318.000,$965.545.000,Este organismo gastó un 6.19% más de lo presupuestado originalmente
142,M. De Transportes Y Telecom.,Ministerio De Transportes Y Telecomunicaciones,2016,965246000,1094149000,0.13354419495133882,13.35,$1.094.149.000,$965.246.000,Este organismo gastó un 13.35% más de lo presupuestado originalmente
143,M. De Transportes Y Telecom.,Ministerio De Transportes Y Telecomunicaciones,2017,1021262000,1027684000,0.006288298203595159,0.63,$1.027.684.000,$1.021.262.000,Este organismo gastó un 0.63% más de lo presupuestado originalmente
144,M. De Vivienda Y Urbanismo,Ministerio De Vivienda Y Urbanismo,2009,1094535000,1590432000,0.4530663706505502,45.31,$1.590.432.000,$1.094.535.000,Este organismo gastó un 45.31% más de lo presupuestado originalmente
145,M. De Vivienda Y Urbanismo,Ministerio De Vivienda Y Urbanismo,2010,1365982000,1654586000,0.2112795044151387,21.13,$1.654.586.000,$1.365.982.000,Este organismo gastó un 21.13% más de lo presupuestado originalmente
146,M. De Vivienda Y Urbanismo,Ministerio De Vivienda Y Urbanismo,2011,1937465000,1824575000,-0.05826685901422735,5.83,$1.824.575.000,$1.937.465.000,Este organismo gastó un 5.83% menos de lo presupuestado originalmente
147,M. De Vivienda Y Urbanismo,Ministerio De Vivienda Y Urbanismo,2012,1884476000,1857109000,-0.014522339366487023,1.45,$1.857.109.000,$1.884.476.000,Este organismo gastó un 1.45% menos de lo presupuestado originalmente
148,M. De Vivienda Y Urbanismo,Ministerio De Vivienda Y Urbanismo,2013,1769227000,1709578000,-0.03371472400093374,3.37,$1.709.578.000,$1.769.227.000,Este organismo gastó un 3.37% menos de lo presupuestado originalmente
149,M. De Vivienda Y Urbanismo,Ministerio De Vivienda Y Urbanismo,2014,1524193000,1741342000,0.14246817824251914,14.25,$1.741.342.000,$1.524.193.000,Este organismo gastó un 14.25% más de lo presupuestado originalmente
150,M. De Vivienda Y Urbanismo,Ministerio De Vivienda Y Urbanismo,2015,1769922000,2007447000,0.1342008291890829,13.42,$2.007.447.000,$1.769.922.000,Este organismo gastó un 13.42% más de lo presupuestado originalmente
151,M. De Vivienda Y Urbanismo,Ministerio De Vivienda Y Urbanismo,2016,1867214000,1906701000,0.021147549236456026,2.11,$1.906.701.000,$1.867.214.000,Este organismo gastó un 2.11% más de lo presupuestado originalmente
152,M. De Vivienda Y Urbanismo,Ministerio De Vivienda Y Urbanismo,2017,2381105000,2391156000,0.004221149424321901,0.42,$2.391.156.000,$2.381.105.000,Este organismo gastó un 0.42% más de lo presupuestado originalmente
153,M. Del Deporte,Ministerio Del Deporte,2014,0,88414000,inf,inf,$88.414.000,$0,Este organismo gastó un inf% más de lo presupuestado originalmente
154,M. Del Deporte,Ministerio Del Deporte,2015,138998000,105930000,-0.23790270363602353,23.79,$105.930.000,$138.998.000,Este organismo gastó un 23.79% menos de lo presupuestado originalmente
155,M. Del Deporte,Ministerio Del Deporte,2016,144972000,118314000,-0.18388378445492923,18.39,$118.314.000,$144.972.000,Este organismo gastó un 18.39% menos de lo presupuestado originalmente
156,M. Del Deporte,Ministerio Del Deporte,2017,133635000,127785000,-0.04377595689751936,4.38,$127.785.000,$133.635.000,Este organismo gastó un 4.38% menos de lo presupuestado originalmente
157,M. Del Interior Y Seguridad Publica,Ministerio Del Interior Y Seguridad Publica,2009,1407319000,1831923000,0.30171126802096754,30.17,$1.831.923.000,$1.407.319.000,Este organismo gastó un 30.17% más de lo presupuestado originalmente
158,M. Del Interior Y Seguridad Publica,Ministerio Del Interior Y Seguridad Publica,2010,1512182000,2052616000,0.35738687538933805,35.74,$2.052.616.000,$1.512.182.000,Este organismo gastó un 35.74% más de lo presupuestado originalmente
159,M. Del Interior Y Seguridad Publica,Ministerio Del Interior Y Seguridad Publica,2011,1623455000,2058100000,0.26772839407313415,26.77,$2.058.100.000,$1.623.455.000,Este organismo gastó un 26.77% más de lo presupuestado originalmente
160,M. Del Interior Y Seguridad Publica,Ministerio Del Interior Y Seguridad Publica,2012,2815076000,3201602000,0.13730570684414914,13.73,$3.201.602.000,$2.815.076.000,Este organismo gastó un 13.73% más de lo presupuestado originalmente
161,M. Del Interior Y Seguridad Publica,Ministerio Del Interior Y Seguridad Publica,2013,3045374000,3266434000,0.0725887854825056,7.26,$3.266.434.000,$3.045.374.000,Este organismo gastó un 7.26% más de lo presupuestado originalmente
162,M. Del Interior Y Seguridad Publica,Ministerio Del Interior Y Seguridad Publica,2014,3079217000,3643022000,0.18310011928357112,18.31,$3.643.022.000,$3.079.217.000,Este organismo gastó un 18.31% más de lo presupuestado originalmente
163,M. Del Interior Y Seguridad Publica,Ministerio Del Interior Y Seguridad Publica,2015,3400985000,3795191000,0.11590936155260903,11.59,$3.795.191.000,$3.400.985.000,Este organismo gastó un 11.59% más de lo presupuestado originalmente
164,M. Del Interior Y Seguridad Publica,Ministerio Del Interior Y Seguridad Publica,2016,3372072000,3556101000,0.05457445748489356,5.46,$3.556.101.000,$3.372.072.000,Este organismo gastó un 5.46% más de lo presupuestado originalmente
165,M. Del Interior Y Seguridad Publica,Ministerio Del Interior Y Seguridad Publica,2017,3344529000,3589352000,0.07320103966806686,7.32,$3.589.352.000,$3.344.529.000,Este organismo gastó un 7.32% más de lo presupuestado originalmente
166,M. Del Medio Ambiente,Ministerio Del Medio Ambiente,2011,35560000,34932000,-0.01766029246344207,1.77,$34.932.000,$35.560.000,Este organismo gastó un 1.77% menos de lo presupuestado originalmente
167,M. Del Medio Ambiente,Ministerio Del Medio Ambiente,2012,36806000,39423000,0.07110253762973429,7.11,$39.423.000,$36.806.000,Este organismo gastó un 7.11% más de lo presupuestado originalmente
168,M. Del Medio Ambiente,Ministerio Del Medio Ambiente,2013,41260000,44301000,0.07370334464372273,7.37,$44.301.000,$41.260.000,Este organismo gastó un 7.37% más de lo presupuestado originalmente
169,M. Del Medio Ambiente,Ministerio Del Medio Ambiente,2014,40346000,43948000,0.08927774748426114,8.93,$43.948.000,$40.346.000,Este organismo gastó un 8.93% más de lo presupuestado originalmente
170,M. Del Medio Ambiente,Ministerio Del Medio Ambiente,2015,47027000,49688000,0.05658451527845706,5.66,$49.688.000,$47.027.000,Este organismo gastó un 5.66% más de lo presupuestado originalmente
171,M. Del Medio Ambiente,Ministerio Del Medio Ambiente,2016,49991000,52941000,0.05901062191194415,5.9,$52.941.000,$49.991.000,Este organismo gastó un 5.9% más de lo presupuestado originalmente
172,M. Del Medio Ambiente,Ministerio Del Medio Ambiente,2017,51736000,54287000,0.04930802535951755,4.93,$54.287.000,$51.736.000,Este organismo gastó un 4.93% más de lo presupuestado originalmente
173,M. Del Trabajo Y Prevision Social,Ministerio Del Trabajo Y Prevision Social,2009,6617133000,4795343000,-0.2753140975102057,27.53,$4.795.343.000,$6.617.133.000,Este organismo gastó un 27.53% menos de lo presupuestado originalmente
174,M. Del Trabajo Y Prevision Social,Ministerio Del Trabajo Y Prevision Social,2010,6774973000,7289580000,0.07595705547461222,7.6,$7.289.580.000,$6.774.973.000,Este organismo gastó un 7.6% más de lo presupuestado originalmente
175,M. Del Trabajo Y Prevision Social,Ministerio Del Trabajo Y Prevision Social,2011,7260178000,7364494000,0.01436824276209206,1.44,$7.364.494.000,$7.260.178.000,Este organismo gastó un 1.44% más de lo presupuestado originalmente
176,M. Del Trabajo Y Prevision Social,Ministerio Del Trabajo Y Prevision Social,2012,7362770000,7525137000,0.02205243407032951,2.21,$7.525.137.000,$7.362.770.000,Este organismo gastó un 2.21% más de lo presupuestado originalmente
177,M. Del Trabajo Y Prevision Social,Ministerio Del Trabajo Y Prevision Social,2013,7456928000,7564036000,0.014363555608958542,1.44,$7.564.036.000,$7.456.928.000,Este organismo gastó un 1.44% más de lo presupuestado originalmente
178,M. Del Trabajo Y Prevision Social,Ministerio Del Trabajo Y Prevision Social,2014,7153102000,7479695000,0.04565753431168743,4.57,$7.479.695.000,$7.153.102.000,Este organismo gastó un 4.57% más de lo presupuestado originalmente
179,M. Del Trabajo Y Prevision Social,Ministerio Del Trabajo Y Prevision Social,2015,7239326000,7629171000,0.0538510076766815,5.39,$7.629.171.000,$7.239.326.000,Este organismo gastó un 5.39% más de lo presupuestado originalmente
180,M. Del Trabajo Y Prevision Social,Ministerio Del Trabajo Y Prevision Social,2016,7359995000,7602816000,0.0329920061086998,3.3,$7.602.816.000,$7.359.995.000,Este organismo gastó un 3.3% más de lo presupuestado originalmente
181,M. Del Trabajo Y Prevision Social,Ministerio Del Trabajo Y Prevision Social,2017,7395509000,7749975000,0.04792989907794041,4.79,$7.749.975.000,$7.395.509.000,Este organismo gastó un 4.79% más de lo presupuestado originalmente
182,M. Publico,Ministerio Publico,2009,123620000,132919000,0.07522245591328264,7.52,$132.919.000,$123.620.000,Este organismo gastó un 7.52% más de lo presupuestado originalmente
183,M. Publico,Ministerio Publico,2010,128745000,140027000,0.08763058759563479,8.76,$140.027.000,$128.745.000,Este organismo gastó un 8.76% más de lo presupuestado originalmente
184,M. Publico,Ministerio Publico,2011,136949000,138985000,0.014866848242776507,1.49,$138.985.000,$136.949.000,Este organismo gastó un 1.49% más de lo presupuestado originalmente
185,M. Publico,Ministerio Publico,2012,137687000,140179000,0.018099021694132345,1.81,$140.179.000,$137.687.000,Este organismo gastó un 1.81% más de lo presupuestado originalmente
186,M. Publico,Ministerio Publico,2013,145037000,146537000,0.010342188544991967,1.03,$146.537.000,$145.037.000,Este organismo gastó un 1.03% más de lo presupuestado originalmente
187,M. Publico,Ministerio Publico,2014,142994000,155085000,0.08455599535644852,8.46,$155.085.000,$142.994.000,Este organismo gastó un 8.46% más de lo presupuestado originalmente
188,M. Publico,Ministerio Publico,2015,155205000,159984000,0.03079153377790664,3.08,$159.984.000,$155.205.000,Este organismo gastó un 3.08% más de lo presupuestado originalmente
189,M. Publico,Ministerio Publico,2016,172182000,180093000,0.04594556922326375,4.59,$180.093.000,$172.182.000,Este organismo gastó un 4.59% más de lo presupuestado originalmente
190,M. Publico,Ministerio Publico,2017,180091000,188985000,0.049386143671810365,4.94,$188.985.000,$180.091.000,Este organismo gastó un 4.94% más de lo presupuestado originalmente
191,M. Sec. Gral. De Gobierno,Ministerio Secretaria General De Gobierno,2009,105944000,113209000,0.06857396360341313,6.86,$113.209.000,$105.944.000,Este organismo gastó un 6.86% más de lo presupuestado originalmente
192,M. Sec. Gral. De Gobierno,Ministerio Secretaria General De Gobierno,2010,137032000,139483000,0.01788633311927141,1.79,$139.483.000,$137.032.000,Este organismo gastó un 1.79% más de lo presupuestado originalmente
193,M. Sec. Gral. De Gobierno,Ministerio Secretaria General De Gobierno,2011,132818000,144898000,0.09095152765438419,9.1,$144.898.000,$132.818.000,Este organismo gastó un 9.1% más de lo presupuestado originalmente
194,M. Sec. Gral. De Gobierno,Ministerio Secretaria General De Gobierno,2012,136811000,168650000,0.23272251500244864,23.27,$168.650.000,$136.811.000,Este organismo gastó un 23.27% más de lo presupuestado originalmente
195,M. Sec. Gral. De Gobierno,Ministerio Secretaria General De Gobierno,2013,147188000,151383000,0.02850096475256135,2.85,$151.383.000,$147.188.000,Este organismo gastó un 2.85% más de lo presupuestado originalmente
196,M. Sec. Gral. De Gobierno,Ministerio Secretaria General De Gobierno,2014,123351000,51839000,-0.579743982618706,57.97,$51.839.000,$123.351.000,Este organismo gastó un 57.97% menos de lo presupuestado originalmente
197,M. Sec. Gral. De Gobierno,Ministerio Secretaria General De Gobierno,2015,26158000,34002000,0.2998700206437801,29.99,$34.002.000,$26.158.000,Este organismo gastó un 29.99% más de lo presupuestado originalmente
198,M. Sec. Gral. De Gobierno,Ministerio Secretaria General De Gobierno,2016,29799000,30974000,0.039430853384341755,3.94,$30.974.000,$29.799.000,Este organismo gastó un 3.94% más de lo presupuestado originalmente
199,M. Sec. Gral. De Gobierno,Ministerio Secretaria General De Gobierno,2017,29054000,34065000,0.172471948785021,17.25,$34.065.000,$29.054.000,Este organismo gastó un 17.25% más de lo presupuestado originalmente
200,M. Sec. Gral. De La Presidencia,Ministerio Secretaria General De La Presidencia De La Republica,2009,42944000,48605000,0.1318228390461997,13.18,$48.605.000,$42.944.000,Este organismo gastó un 13.18% más de lo presupuestado originalmente
201,M. Sec. Gral. De La Presidencia,Ministerio Secretaria General De La Presidencia De La Republica,2010,49721000,38121000,-0.23330182417891837,23.33,$38.121.000,$49.721.000,Este organismo gastó un 23.33% menos de lo presupuestado originalmente
202,M. Sec. Gral. De La Presidencia,Ministerio Secretaria General De La Presidencia De La Republica,2011,9269000,8928000,-0.03678929765886288,3.68,$8.928.000,$9.269.000,Este organismo gastó un 3.68% menos de lo presupuestado originalmente
203,M. Sec. Gral. De La Presidencia,Ministerio Secretaria General De La Presidencia De La Republica,2012,10181000,9072000,-0.10892839603182398,10.89,$9.072.000,$10.181.000,Este organismo gastó un 10.89% menos de lo presupuestado originalmente
204,M. Sec. Gral. De La Presidencia,Ministerio Secretaria General De La Presidencia De La Republica,2013,10929000,10053000,-0.08015371946198188,8.02,$10.053.000,$10.929.000,Este organismo gastó un 8.02% menos de lo presupuestado originalmente
205,M. Sec. Gral. De La Presidencia,Ministerio Secretaria General De La Presidencia De La Republica,2014,10040000,13546000,0.349203187250996,34.92,$13.546.000,$10.040.000,Este organismo gastó un 34.92% más de lo presupuestado originalmente
206,M. Sec. Gral. De La Presidencia,Ministerio Secretaria General De La Presidencia De La Republica,2015,14573000,15426000,0.058532903314348454,5.85,$15.426.000,$14.573.000,Este organismo gastó un 5.85% más de lo presupuestado originalmente
207,M. Sec. Gral. De La Presidencia,Ministerio Secretaria General De La Presidencia De La Republica,2016,16434000,15901000,-0.032432761348424,3.24,$15.901.000,$16.434.000,Este organismo gastó un 3.24% menos de lo presupuestado originalmente
208,M. Sec. Gral. De La Presidencia,Ministerio Secretaria General De La Presidencia De La Republica,2017,16303000,15920000,-0.023492608722321045,2.35,$15.920.000,$16.303.000,Este organismo gastó un 2.35% menos de lo presupuestado originalmente
209,Poder Judicial,Poder Judicial,2009,356150000,408792000,0.14780850765127054,14.78,$408.792.000,$356.150.000,Este organismo gastó un 14.78% más de lo presupuestado originalmente
210,Poder Judicial,Poder Judicial,2010,396752000,418521000,0.054868028390531114,5.49,$418.521.000,$396.752.000,Este organismo gastó un 5.49% más de lo presupuestado originalmente
211,Poder Judicial,Poder Judicial,2011,414179000,420661000,0.015650238182042062,1.57,$420.661.000,$414.179.000,Este organismo gastó un 1.57% más de lo presupuestado originalmente
212,Poder Judicial,Poder Judicial,2012,420341000,423632000,0.007829357593001872,0.78,$423.632.000,$420.341.000,Este organismo gastó un 0.78% más de lo presupuestado originalmente
213,Poder Judicial,Poder Judicial,2013,427893000,424373000,-0.008226355654334144,0.82,$424.373.000,$427.893.000,Este organismo gastó un 0.82% menos de lo presupuestado originalmente
214,Poder Judicial,Poder Judicial,2014,426596000,442824000,0.038040675486877513,3.8,$442.824.000,$426.596.000,Este organismo gastó un 3.8% más de lo presupuestado originalmente
215,Poder Judicial,Poder Judicial,2015,453656000,547978000,0.20791524855837903,20.79,$547.978.000,$453.656.000,Este organismo gastó un 20.79% más de lo presupuestado originalmente
216,Poder Judicial,Poder Judicial,2016,506452000,541069000,0.06835198597300435,6.84,$541.069.000,$506.452.000,Este organismo gastó un 6.84% más de lo presupuestado originalmente
217,Poder Judicial,Poder Judicial,2017,541613000,558680000,0.03151142974780886,3.15,$558.680.000,$541.613.000,Este organismo gastó un 3.15% más de lo presupuestado originalmente
218,Presidencia De La Republica,Presidencia De La Republica,2009,15725000,20756000,0.3199364069952305,31.99,$20.756.000,$15.725.000,Este organismo gastó un 31.99% más de lo presupuestado originalmente
219,Presidencia De La Republica,Presidencia De La Republica,2010,17373000,21401000,0.2318540263627468,23.19,$21.401.000,$17.373.000,Este organismo gastó un 23.19% más de lo presupuestado originalmente
220,Presidencia De La Republica,Presidencia De La Republica,2011,16982000,19758000,0.16346720056530445,16.35,$19.758.000,$16.982.000,Este organismo gastó un 16.35% más de lo presupuestado originalmente
221,Presidencia De La Republica,Presidencia De La Republica,2012,16940000,19216000,0.13435655253837073,13.44,$19.216.000,$16.940.000,Este organismo gastó un 13.44% más de lo presupuestado originalmente
222,Presidencia De La Republica,Presidencia De La Republica,2013,17503000,20494000,0.17088499114437525,17.09,$20.494.000,$17.503.000,Este organismo gastó un 17.09% más de lo presupuestado originalmente
223,Presidencia De La Republica,Presidencia De La Republica,2014,17869000,21502000,0.20331300016788853,20.33,$21.502.000,$17.869.000,Este organismo gastó un 20.33% más de lo presupuestado originalmente
224,Presidencia De La Republica,Presidencia De La Republica,2015,17995000,21400000,0.189219227563212,18.92,$21.400.000,$17.995.000,Este organismo gastó un 18.92% más de lo presupuestado originalmente
225,Presidencia De La Republica,Presidencia De La Republica,2016,18972000,20879000,0.10051655070630403,10.05,$20.879.000,$18.972.000,Este organismo gastó un 10.05% más de lo presupuestado originalmente
226,Presidencia De La Republica,Presidencia De La Republica,2017,19104000,20703000,0.08369974874371859,8.37,$20.703.000,$19.104.000,Este organismo gastó un 8.37% más de lo presupuestado originalmente
227,Servicio Electoral,Servicio Electoral,2017,55226000,56346000,0.020280302755948287,2.03,$56.346.000,$55.226.000,Este organismo gastó un 2.03% más de lo presupuestado originalmente
228,Tesoro Publico,Tesoro Publico,2009,29104973000,36510928000,0.2544566868349268,25.45,$36.510.928.000,$29.104.973.000,Este organismo gastó un 25.45% más de lo presupuestado originalmente
229,Tesoro Publico,Tesoro Publico,2010,29480113000,32912564000,0.11643276265596404,11.64,$32.912.564.000,$29.480.113.000,Este organismo gastó un 11.64% más de lo presupuestado originalmente
230,Tesoro Publico,Tesoro Publico,2011,32446250000,40891514000,0.2602847478522171,26.03,$40.891.514.000,$32.446.250.000,Este organismo gastó un 26.03% más de lo presupuestado originalmente
231,Tesoro Publico,Tesoro Publico,2012,32917139000,39046985000,0.18622049747397548,18.62,$39.046.985.000,$32.917.139.000,Este organismo gastó un 18.62% más de lo presupuestado originalmente
232,Tesoro Publico,Tesoro Publico,2013,38945392000,40587926000,0.04217531049629697,4.22,$40.587.926.000,$38.945.392.000,Este organismo gastó un 4.22% más de lo presupuestado originalmente
233,Tesoro Publico,Tesoro Publico,2014,35097233000,39415436000,0.12303542561318152,12.3,$39.415.436.000,$35.097.233.000,Este organismo gastó un 12.3% más de lo presupuestado originalmente
234,Tesoro Publico,Tesoro Publico,2015,38327272000,42346458000,0.1048649118570192,10.49,$42.346.458.000,$38.327.272.000,Este organismo gastó un 10.49% más de lo presupuestado originalmente
235,Tesoro Publico,Tesoro Publico,2016,41008629000,55000373000,0.3411902407173866,34.12,$55.000.373.000,$41.008.629.000,Este organismo gastó un 34.12% más de lo presupuestado originalmente
236,Tesoro Publico,Tesoro Publico,2017,43097852000,46795063000,0.08578643316144852,8.58,$46.795.063.000,$43.097.852.000,Este organismo gastó un 8.58% más de lo presupuestado originalmente
