<?xml version="1.0" encoding="utf-8"?>
<!-- Generator: Adobe Illustrator 21.1.0, SVG Export Plug-In . SVG Version: 6.00 Build 0)  -->
<svg version="1.1" id="Capa_1" xmlns="http://www.w3.org/2000/svg" xmlns:xlink="http://www.w3.org/1999/xlink" x="0px" y="0px"
	 viewBox="0 0 116.7 112.7" style="enable-background:new 0 0 116.7 112.7;" xml:space="preserve">
<style type="text/css">
	.st0{fill:none;stroke:#FFFFFF;stroke-miterlimit:10;}
</style>
<g>
	<path class="st0" d="M31.5,38.3c1.1-0.2,2,0.8,3.7,11.2c0,0.3,1.4,17.3,1.4,17.6c1.7-3,2-21.9,2-25.8c0-8.8-6.8-12.2-12.2-13
		c0-0.3,0-0.5,0-0.8c0-0.3,0-0.6-0.1-0.9c1.7-1.1,3-3.2,3.5-5.7c0.6-0.4,1-1.1,1-2.1c0-0.9-0.4-1.7-1-2.1c-0.7-3.8-3.2-6.6-6.3-6.6
		c-3,0-5.6,2.8-6.3,6.6c-0.6,0.4-1,1.1-1,2.1c0,0.9,0.4,1.7,1,2.1c0.5,2.9,2.1,5.1,4.1,6.1c0,0.2,0,0.3,0,0.5c0,0.2,0,0.5,0,0.7
		C15.9,28.8,8.5,32,8.5,41.2c0,3.9,0.3,22.8,2,25.8c0-0.3,1.1-16.7,1.1-17c1.7-10.3,2.9-11.9,4-11.7c1.1,0.2,0.6,8.7-1,19
		c-0.2,1.5-5.2,44.8-5.5,46.2c2.7,2.5,10.8-37.7,14.5-37.7s11.1,40.3,13.8,37.8c-0.3-1.4-4.5-44.8-4.8-46.4
		C30.9,47,30.4,38.5,31.5,38.3z"/>
	<g>
		<path class="st0" d="M28.4,77.2c-1.4,12.2-3,25.6-3.1,26.4c1.2,1.2,3.6-6.6,6.1-15.4C30.5,84.4,29.4,80.6,28.4,77.2z"/>
		<g>
			<path class="st0" d="M48,89.2c2.3,8.4,4.4,15.6,5.6,14.5c-0.1-0.8-1.4-13-2.6-24.8C50,82.2,49,85.8,48,89.2z"/>
			<path class="st0" d="M47.6,57.3c0.2-1.3,0.4-2.7,0.6-3.9c-0.9-6.6-1.2-12-0.9-14.1c-0.8,1.4-1.6,4.4-2.6,10.8
				c0,0.3-1.1,16.7-1.1,17c-1.7-3-2-21.9-2-25.8c0-5.9,3-9.3,6.6-11.2c-1.8-1-3.8-1.5-5.6-1.8c0-0.3,0-0.5,0-0.8
				c0-0.3,0-0.6-0.1-0.9c1.7-1.1,3-3.2,3.5-5.7c0.6-0.4,1-1.1,1-2.1s-0.4-1.7-1-2.1c-0.7-3.8-3.2-6.6-6.3-6.6c-3,0-5.6,2.8-6.3,6.6
				c-0.6,0.4-1,1.1-1,2.1s0.4,1.7,1,2.1c0.5,2.9,2.1,5.1,4.1,6.1c0,0.2,0,0.3,0,0.5c0,0.2,0,0.5,0,0.7c-1.9,0.2-4,0.8-6,1.7
				c3.7,1.9,6.9,5.3,6.9,11.3c0,3.9-0.3,22.8-2,25.8c0-0.3-1.4-17.3-1.4-17.6c-1.6-10.1-2.5-11.3-3.6-11.2c0.1,0,0.1,0,0.2,0
				c0.9,0.1,0.8,5.4-0.1,12.7c0.2,2,0.5,4.1,0.9,6.3c0.1,0.7,1.1,10,2.1,20.1c2-6.4,3.8-11.5,5.2-11.5c1.4,0,3.3,5.8,5.3,12.8
				C46.3,68.1,47.5,58,47.6,57.3z"/>
		</g>
	</g>
	<g>
		<path class="st0" d="M61.7,77.2c-1.4,12.2-3,25.6-3.1,26.4c1.2,1.2,3.6-6.6,6.1-15.4C63.7,84.4,62.7,80.6,61.7,77.2z"/>
		<g>
			<path class="st0" d="M81.2,89.2c2.3,8.4,4.4,15.6,5.6,14.5c-0.1-0.8-1.4-13-2.6-24.8C83.2,82.2,82.2,85.8,81.2,89.2z"/>
			<path class="st0" d="M80.9,57.3c0.2-1.3,0.4-2.7,0.6-3.9c-0.9-6.6-1.2-12-0.9-14.1c-0.8,1.4-1.6,4.4-2.6,10.8
				c0,0.3-1.1,16.7-1.1,17c-1.7-3-2-21.9-2-25.8c0-5.9,3-9.3,6.6-11.2c-1.8-1-3.8-1.5-5.6-1.8c0-0.3,0-0.5,0-0.8
				c0-0.3,0-0.6-0.1-0.9c1.7-1.1,3-3.2,3.5-5.7c0.6-0.4,1-1.1,1-2.1s-0.4-1.7-1-2.1c-0.7-3.8-3.2-6.6-6.3-6.6c-3,0-5.6,2.8-6.3,6.6
				c-0.6,0.4-1,1.1-1,2.1s0.4,1.7,1,2.1c0.5,2.9,2.1,5.1,4.1,6.1c0,0.2,0,0.3,0,0.5c0,0.2,0,0.5,0,0.7c-1.9,0.2-4,0.8-6,1.7
				c3.7,1.9,6.9,5.3,6.9,11.3c0,3.9-0.3,22.8-2,25.8c0-0.3-1.4-17.3-1.4-17.6c-1.6-10.1-2.5-11.3-3.6-11.2c0.1,0,0.1,0,0.2,0
				c0.9,0.1,0.8,5.4-0.1,12.7c0.2,2,0.5,4.1,0.9,6.3c0.1,0.7,1.1,10,2.1,20.1c2-6.4,3.8-11.5,5.2-11.5c1.4,0,3.3,5.8,5.3,12.8
				C79.6,68.1,80.7,58,80.9,57.3z"/>
		</g>
	</g>
	<path class="st0" d="M64.6,38.3c1.1-0.2,2,0.8,3.7,11.2c0,0.3,1.4,17.3,1.4,17.6c1.7-3,2-21.9,2-25.8c0-8.8-6.8-12.2-12.2-13
		c0-0.3,0-0.5,0-0.8c0-0.3,0-0.6-0.1-0.9c1.7-1.1,3-3.2,3.5-5.7c0.6-0.4,1-1.1,1-2.1c0-0.9-0.4-1.7-1-2.1c-0.7-3.8-3.2-6.6-6.3-6.6
		c-3,0-5.6,2.8-6.3,6.6c-0.6,0.4-1,1.1-1,2.1c0,0.9,0.4,1.7,1,2.1c0.5,2.9,2.1,5.1,4.1,6.1c0,0.2,0,0.3,0,0.5c0,0.2,0,0.5,0,0.7
		C49,28.8,41.6,32,41.6,41.2c0,3.9,0.3,22.8,2,25.8c0-0.3,1.1-16.7,1.1-17c1.7-10.3,2.9-11.9,4-11.7c1.1,0.2,0.6,8.7-1,19
		c-0.2,1.5-5.2,44.8-5.5,46.2c2.7,2.5,10.8-37.7,14.5-37.7s11.1,40.3,13.8,37.8c-0.3-1.4-4.5-44.8-4.8-46.4
		C64,47,63.5,38.5,64.6,38.3z"/>
	<path class="st0" d="M97.8,38.3c1.1-0.2,2,0.8,3.7,11.2c0,0.3,1.4,17.3,1.4,17.6c1.7-3,2-21.9,2-25.8c0-8.8-6.8-12.2-12.2-13
		c0-0.3,0-0.5,0-0.8c0-0.3,0-0.6-0.1-0.9c1.7-1.1,3-3.2,3.5-5.7c0.6-0.4,1-1.1,1-2.1c0-0.9-0.4-1.7-1-2.1c-0.7-3.8-3.2-6.6-6.3-6.6
		c-3,0-5.6,2.8-6.3,6.6c-0.6,0.4-1,1.1-1,2.1c0,0.9,0.4,1.7,1,2.1c0.5,2.9,2.1,5.1,4.1,6.1c0,0.2,0,0.3,0,0.5c0,0.2,0,0.5,0,0.7
		c-5.5,0.6-12.9,3.9-12.9,13.1c0,3.9,0.3,22.8,2,25.8c0-0.3,1.1-16.7,1.1-17c1.7-10.3,2.9-11.9,4-11.7c1.1,0.2,0.6,8.7-1,19
		c-0.2,1.5-5.2,44.8-5.5,46.2c2.7,2.5,10.8-37.7,14.5-37.7s11.1,40.3,13.8,37.8c-0.3-1.4-4.5-44.8-4.8-46.4
		C97.2,46.9,96.7,38.4,97.8,38.3z"/>
</g>
</svg>
