<?xml version="1.0" encoding="utf-8"?>
<!-- Generator: Adobe Illustrator 21.1.0, SVG Export Plug-In . SVG Version: 6.00 Build 0)  -->
<svg version="1.1" id="Capa_1" xmlns="http://www.w3.org/2000/svg" xmlns:xlink="http://www.w3.org/1999/xlink" x="0px" y="0px"
	 viewBox="0 0 132.7 127" style="enable-background:new 0 0 132.7 127;" xml:space="preserve">
<style type="text/css">
	.st0{fill:#1F3E98;}
	.st1{fill:#F51117;}
	.st2{fill:#FFFFFF;}
</style>
<g>
	<g>
		<g>
			<rect x="6.8" y="6.5" class="st0" width="51.4" height="113.2"/>
		</g>
		<g>
			<rect x="60.2" y="6.5" class="st1" width="64.1" height="113.2"/>
		</g>
		<g>
			<g>
				<g>
					<path class="st2" d="M37.3,28.9v1.8C37.7,29.9,37.5,29.3,37.3,28.9z"/>
				</g>
			</g>
			<g>
				<path class="st2" d="M40.9,18.9c0.1,0,0-0.3,0.2-0.3c0.2,0,0.5,0.2,0.6,0.4c0,0.2-0.1,0.8,0.6,0.9c0,0,0,0.1,0,0.2h0
					c0,0.1,0,0.3-0.1,0.4c0,0,0.1,0,0.1,0c1,0,1.6,0,1.8-0.3c0,0,0.2-0.2,0.3-0.4c0.3-0.5,0.3-1,0.2-1.4h0c0,0,0,0,0-0.1
					c0,0,0-0.1-0.1-0.1c-0.2-0.4-0.8-0.9-1.5-1.1c0,0-0.1,0-0.1,0c0,0,0,0,0,0c0,0,0,0,0,0l0,0c0,0,0,0,0,0c0,0,0.2,0,0.2,0
					c0.5,0.1,1.4,0.6,1.6,1.1c0.2-0.1,0.3-0.4,0.4-0.7h0c0,0,0-0.4,0.1-0.7c0-0.1,0-0.2-0.1-0.2c-0.1,0-0.2,0-0.2,0.1
					c-0.1,0.3-0.4,0.1-0.3-0.2c0-0.1,0-0.2-0.1-0.2c-0.1,0-0.2,0-0.2,0.1c-0.1,0.3-0.4,0.1-0.3-0.1c0-0.1,0-0.2-0.1-0.2
					c-0.1,0-0.2,0-0.2,0.1c-0.1,0.3-0.4,0.1-0.3-0.2c0-0.1,0-0.2-0.1-0.2c-0.1,0-0.2,0-0.2,0.1c-0.1,0.2-0.2,0.3-0.3,0.4
					c0.6,0.1,1.2,0.4,1.6,0.9c0,0,0.2,0.2,0.2,0.2c0,0,0,0,0,0c0,0,0,0,0,0c0,0,0,0.1,0,0.1c0,0,0,0,0,0c-0.1-0.1-0.1-0.1-0.2-0.2
					c-0.7-0.6-1.3-0.8-1.7-0.9c-0.3,0-0.2,0.4-0.2,0.6c-0.5-0.1-0.9,0.3-1,0.7c0,0.1,0,0.3,0.1,0.4c0,0,0,0,0,0c0,0-0.1-0.1-0.1-0.2
					c0-0.1-0.1-0.2-0.1-0.3c-0.4,0-0.8,0.3-0.8,0.7C40.6,18.6,40.8,18.9,40.9,18.9z M42.5,18.3c0.1-0.1,0.1,0.5,0.6,0.3
					C42.8,19,42.3,18.6,42.5,18.3z M42.5,18c0.2-0.1,0.3-0.5,0.6-0.3c0.1,0.1,0.2,0.2,0.4,0.3c0.1,0.1,0.3,0.2,0.4,0.3
					c0.1,0.2-0.1,0.5-0.4,0.2c-0.2-0.3-0.4-0.7-0.7-0.5c-0.3,0.1-0.5,0.4-0.6,0.2C42.1,18.1,42.4,18.1,42.5,18z M41.2,18.1
					c-0.1,0.2-0.3,0.2-0.3,0.4C40.7,18.3,41,17.9,41.2,18.1z"/>
			</g>
			<g>
				<path class="st2" d="M53,37.6c-0.3-0.4-1.1-0.2-1.1-0.2c0.4-1.3-0.8-1.6-0.8-1.6c-0.4-0.1-0.7,0-0.9,0.1c0,0,0,0,0,0
					c0,0,0,0,0,0c0,0-0.1,0-0.1,0.1c-0.1,0.1-0.2,0.3-0.2,0.4c0,0.3,0.3,0.6,0.6,0.6c0.1,0,0.3,0,0.4-0.1c0.1-0.1,0.2-0.2,0.2-0.4
					c0.2,0.1,0.2,0.3,0.2,0.3c0.3,1.1-0.9,1.5-0.9,1.5c-2.7,0.8-4.4-0.6-4.4-0.6l0.5-0.3c0.2-0.1,0.3-0.1,0.4-0.1c0,0,0,0.1,0,0.1
					c0,0.3,0.2,0.5,0.5,0.5c0.3,0,0.5-0.2,0.5-0.5c0-0.1,0-0.2-0.1-0.3l0,0c0,0,0-0.1,0-0.1c-0.3-0.5-1.4-0.2-1.4-0.2
					c0.4-0.9,0-1.6,0-1.6c-0.2-0.3-0.2-0.5-0.2-0.5c0-0.3-0.1-0.4-0.1-0.4c-0.2-0.2-0.5-0.1-0.5-0.1c-0.4,0.1-0.5-0.1-0.5-0.1
					c-0.4-0.3-0.5-0.1-0.5-0.1c-0.2,0.1,0.1,0.4,0.1,0.4c-0.4,0-0.5,0.5-0.5,0.5c-0.2,0.8,0.5,0.9,0.5,0.9c0.5,0,0.5-0.4,0.5-0.4
					c0.1-0.4-0.5-0.4-0.5-0.4c0.1-0.2,0.3-0.2,0.3-0.2c0.6-0.1,0.8,0.5,0.8,0.5c0.5,0.7-0.1,1.4-0.1,1.4c-0.1,0.1-0.2,0-0.2,0
					c-0.3-0.1-0.8-0.5-0.8-0.5c0,0,0,0,0,0h-0.2c-0.2,0-0.4,0.1-0.6,0.1c0.2,0.2,0.9,0.8,0.9,0.8c-0.5,0.4-0.9,0.1-0.9,0.1
					c-0.3-0.3-0.2-0.8-0.2-0.9c0,0,0,0-0.1,0c-0.2,0.1-0.5,0.2-0.8,0.3c0.3,0.4,0.7,1.1,0.7,1.1c-0.6,0.2-0.8-0.6-0.8-1.1
					c-0.1,0-0.2,0.1-0.4,0.1c0,0.1,0,0.2,0,0.2c0,0.5,0.5,1,0.5,1c-0.4-0.1-0.7,0.2-0.7,0.2c-0.3,0.2-0.3,0.6-0.3,0.7
					c0,0.2,0.1,0.3,0.3,0.3c0.2,0,0.3-0.1,0.3-0.3c0-0.2-0.1-0.3-0.3-0.3c0.1-0.3,0.5-0.1,0.5-0.1c0.5,0.4-0.3,0.9-0.3,0.9
					c-0.5,0.4-1.1-0.3-1.1-0.3c0.6-1,0.7-1.7,0.7-2.2c-0.2,0.1-0.4,0.1-0.6,0.2c0.3,0.9-0.4,1.4-0.4,1.4c-0.2-0.1-0.2-0.6-0.2-0.6
					c-0.1-0.2-0.1-0.4-0.2-0.6c-0.2,0-0.3,0.1-0.5,0.1c0.2,0.6,0.3,1.4,0.3,1.4c-0.1,0.1-0.4,0.1-0.4,0.1c-0.4,0-0.2-0.2-0.2-0.2
					c0.2-0.2,0.2-0.3,0.2-0.3c-0.1-0.3-0.6,0-0.6,0c-0.6,0.4-0.5,0.7-0.5,0.7c0.1,0.2,0.7,0.5,0.7,0.5c-0.4,0.3-1,0.2-1.1,0.1
					c0-0.2-0.2-0.3-0.3-0.4c0,0,0,0,0,0c-0.2,0-0.4,0.1-0.4,0.2c0,0-0.1,0.1-0.1,0.1l-0.4-0.1c-0.3,0-0.4-0.8-0.5-1.5
					c-0.1,0-0.2,0-0.3,0c0.1,0.7,0.2,1.4,0.2,1.4c-0.1,0-0.7-0.4-0.7-0.4c-0.7-0.4-1.2-0.3-1.3-0.3c-0.4,0.1-0.6,0.4-0.6,0.8
					c0,0.4,0.4,0.8,0.8,0.8c0.4,0,0.8-0.3,0.8-0.8c0.3,0.1,0.5,0.3,0.5,0.3c0.7,0.5,1.4,0.5,1.5,0.5c0.1,0.3,0.3,0.5,0.6,0.5
					c0.2,0,0.4-0.1,0.5-0.3c1.5,0,2.1-0.7,2.1-0.7c0.2-0.2,0.2-0.1,0.2-0.1c0.6,0.8,1.6,0.3,1.6,0.3c0.2-0.1,0.3,0,0.3,0
					c0.2,0.3,0.5,0.2,0.5,0.2c0.4-0.2,0.2-0.5,0.2-0.5c-0.1-0.1,0-0.1,0-0.1c0.5,0.1,0.6-0.2,0.6-0.2c0.1-0.2-0.3-0.4-0.3-0.4
					c-0.1-0.1,0.1-0.2,0.1-0.2c0.3-0.2,0.3-0.3,0.3-0.3c0.4,0,0.3-0.2,0.3-0.2c0-0.1-0.5-0.1-0.5-0.1c-0.4,0-0.3-0.2-0.3-0.2
					c0.5,0,1.4-0.3,1.4-0.3c1.2,1,3,1.2,3,1.2c0,0.2,0,0.4,0,0.5c0,0,0,0,0,0c-0.2,0-0.3,0.1-0.3,0.3c0,0.2,0.1,0.3,0.3,0.3
					c0,0,0.1,0,0.1,0c0.6-0.2,0.6-1,0.6-1c1.6,0.2,2.8-1.1,2.8-1.1c0.2-0.1,0.2-0.1,0.3-0.1c0,0,0,0,0,0c0.1,0.1,0.2,0.2,0.4,0.2
					c0.2,0,0.3-0.1,0.4-0.2c0.1-0.1,0.1-0.2,0.1-0.3c0,0,0,0,0,0c0,0,0,0,0,0C53.1,37.7,53,37.6,53,37.6z"/>
			</g>
			<g>
				<path class="st2" d="M33.2,39.7c0.2-0.1,0.2-0.3,0.2-0.3c0-0.4-0.3-0.7-0.3-0.7c-0.2,0-0.4,0-0.6,0h0h0c-0.2,0-0.4,0-0.6,0
					c0,0-0.3,0.2-0.3,0.7c0,0,0,0.2,0.2,0.3c0,0-0.4,0.2-0.4,0.5c0,0,0,0.2,0.3,0.5c0,0,0.3,0.3,0.3,0.5c0,0,0,0.3,0.5,0.3
					c0.4,0,0.5-0.3,0.5-0.3c0.1-0.2,0.3-0.5,0.3-0.5c0.4-0.3,0.3-0.5,0.3-0.5C33.6,39.9,33.2,39.7,33.2,39.7z"/>
			</g>
			<g>
				<g>
					<polygon class="st2" points="36.3,37.9 36.5,37.9 36.3,37.6 					"/>
				</g>
				<g>
					<polygon class="st2" points="29,37.9 29.2,37.9 29.1,37.6 					"/>
				</g>
				<g>
					<path class="st2" d="M28.2,37.3C28.2,37.3,28.1,37.3,28.2,37.3l-0.1,0.3c0.1,0,0.1,0,0.1,0c0,0,0.1,0,0.1,0c0,0,0-0.1,0-0.1
						c0-0.1,0-0.1,0-0.1C28.3,37.3,28.2,37.3,28.2,37.3z"/>
				</g>
				<g>
					<path class="st2" d="M31.3,37.6c-0.1,0-0.1,0-0.2,0.1c0,0.1-0.1,0.1-0.1,0.3c0,0.1,0,0.2,0,0.3c0,0.1,0.1,0.1,0.2,0.1
						c0.1,0,0.1,0,0.2-0.1c0-0.1,0.1-0.1,0.1-0.3c0-0.1,0-0.2,0-0.3C31.4,37.6,31.4,37.6,31.3,37.6z"/>
				</g>
				<g>
					<path class="st2" d="M34,37.6c-0.1,0-0.1,0-0.2,0.1c0,0.1,0,0.2,0,0.3c0,0.1,0,0.2,0.1,0.3c0,0.1,0.1,0.1,0.2,0.1
						c0.1,0,0.1,0,0.2-0.1c0-0.1,0.1-0.2,0-0.3c0-0.1,0-0.2-0.1-0.3C34.1,37.6,34.1,37.6,34,37.6z"/>
				</g>
				<g>
					<polygon class="st2" points="26.6,37.5 26.8,37.6 26.7,37.3 					"/>
				</g>
				<g>
					<path class="st2" d="M22.4,35.9l-0.1,0.3l0,0c0.1,0,0.1,0,0.1,0c0,0,0.1-0.1,0.1-0.1c0,0,0-0.1,0-0.1c0,0,0-0.1,0-0.1
						C22.5,35.9,22.5,35.9,22.4,35.9z"/>
				</g>
				<g>
					<path class="st2" d="M23.5,36.3c-0.1,0-0.1,0-0.2,0c-0.1,0-0.1,0.1-0.1,0.2c0,0.1-0.1,0.2,0,0.3c0,0.1,0.1,0.1,0.1,0.1
						c0.1,0,0.1,0,0.2,0c0.1,0,0.1-0.1,0.1-0.3c0-0.1,0.1-0.2,0-0.3C23.6,36.3,23.5,36.3,23.5,36.3z"/>
				</g>
				<g>
					<path class="st2" d="M24.5,36.6C24.5,36.6,24.5,36.6,24.5,36.6l-0.1,0.3c0.1,0,0.1,0,0.1,0c0,0,0,0,0.1,0c0,0,0-0.1,0-0.1
						c0-0.1,0-0.1,0-0.1C24.6,36.6,24.5,36.6,24.5,36.6z"/>
				</g>
				<g>
					<path class="st2" d="M40.7,36.6c0,0-0.1,0-0.2,0c0,0,0,0,0,0l0.1,0.3c0.1,0,0.1,0,0.1-0.1c0,0,0,0,0-0.1c0,0,0-0.1,0-0.1
						C40.8,36.6,40.8,36.6,40.7,36.6z"/>
				</g>
				<g>
					<polygon class="st2" points="42.6,36.5 42.8,36.4 42.6,36.2 					"/>
				</g>
				<g>
					<path class="st2" d="M43.4,35.3c-0.1-0.1-0.2-0.1-0.3-0.1c-0.1,0-0.2,0-0.2,0c-0.4,0.1-4.2,1.8-10.4,1.8
						c-6.2,0-10-1.7-10.4-1.8c0,0-0.1,0-0.2,0c-0.1,0-0.2,0-0.3,0.1l-1.3,1c0,0,0,0,0,0c0.4,0,0.8,0.2,0.8,0.2
						c3.3,1.5,7.1,2,11.4,2.1c4.2,0,8-0.6,11.4-2.1c0,0,0.4-0.2,0.8-0.2c0,0,0,0,0,0L43.4,35.3z M31.3,37.2l0.3,0l-0.3,0.2h-0.1
						L31.3,37.2z M22.8,36.2c0,0.1-0.1,0.1-0.1,0.1c0,0-0.1,0-0.2,0c-0.1,0-0.1,0-0.2-0.1l-0.1,0l-0.1,0.2c0,0,0,0.1,0,0.1
						c0,0,0,0,0.1,0.1l0,0l0,0.1l-0.5-0.2l0-0.1l0,0c0,0,0.1,0,0.1,0c0,0,0,0,0-0.1l0.2-0.5c0,0,0-0.1,0-0.1c0,0,0,0-0.1-0.1l0,0
						l0-0.1l0.3,0.1c0.1,0,0.1,0.1,0.2,0.1c0,0,0.1,0,0.1,0.1c0,0,0,0.1,0.1,0.1C22.8,36.1,22.8,36.2,22.8,36.2z M23.8,36.8
						c0,0.1-0.1,0.2-0.2,0.3c-0.1,0.1-0.2,0.1-0.4,0C23.1,37,23,37,23,36.9c-0.1-0.1-0.1-0.1-0.1-0.2c0-0.1,0-0.2,0-0.2
						c0-0.1,0.1-0.1,0.1-0.2c0.1-0.1,0.1-0.1,0.2-0.1c0.1,0,0.2,0,0.3,0c0.1,0,0.3,0.1,0.3,0.2C23.9,36.5,23.9,36.6,23.8,36.8z
						 M24.7,37.2c0,0.1,0.1,0.1,0.1,0.2c0,0,0,0,0.1,0l0,0.1l-0.3-0.1c0,0,0-0.1-0.1-0.3c0-0.1,0-0.1,0-0.1c0,0,0,0,0,0
						c0,0,0,0-0.1,0l-0.1,0.2c0,0,0,0.1,0,0.1c0,0,0,0,0.1,0l0,0l0,0.1l-0.5-0.1l0-0.1l0,0c0,0,0.1,0,0.1,0c0,0,0,0,0-0.1l0.1-0.5
						c0,0,0-0.1,0-0.1c0,0,0,0-0.1,0l0,0l0-0.1l0.3,0.1l0.1,0c0.1,0,0.1,0,0.2,0c0,0,0.1,0,0.1,0.1c0,0,0,0.1,0.1,0.1
						c0,0,0,0.1,0,0.1c0,0.1-0.1,0.2-0.2,0.2C24.7,37,24.7,37.1,24.7,37.2z M26.2,37.8l-0.8-0.2l0-0.1h0c0,0,0.1,0,0.1,0
						c0,0,0,0,0-0.1l0.1-0.5c0,0,0-0.1,0-0.1c0,0,0,0-0.1,0l0,0l0-0.1l0.5,0.1l0,0.1l0,0c0,0-0.1,0-0.1,0c0,0,0,0,0,0.1l-0.1,0.5
						c0,0,0,0.1,0,0.1c0,0,0,0,0,0c0,0,0,0,0.1,0c0.1,0,0.1,0,0.2,0c0,0,0.1-0.1,0.1-0.1l0.1,0L26.2,37.8z M27.2,38l-0.4-0.1l0-0.1
						c0,0,0.1,0,0.1,0c0,0,0,0,0,0c0,0,0,0,0,0l0,0l0-0.1l-0.3-0.1l0,0c0,0,0,0,0,0.1c0,0,0,0,0,0c0,0,0,0,0.1,0l0,0.1l-0.3-0.1
						l0-0.1c0.1,0,0.1,0,0.2-0.1l0.4-0.6l0.1,0l0.1,0.7c0,0.1,0,0.1,0.1,0.1C27.1,37.9,27.1,37.9,27.2,38L27.2,38z M28.6,38.2
						l-0.3,0c0,0-0.1-0.1-0.1-0.2c0-0.1,0-0.1-0.1-0.1c0,0,0,0,0,0c0,0,0,0-0.1,0l0,0.2c0,0,0,0.1,0,0.1c0,0,0,0,0.1,0h0l0,0.1
						l-0.5-0.1l0-0.1l0,0c0,0,0.1,0,0.1,0c0,0,0,0,0-0.1l0.1-0.5c0,0,0-0.1,0-0.1c0,0,0,0-0.1,0l0,0l0-0.1l0.4,0l0.1,0
						c0.1,0,0.1,0,0.2,0c0,0,0.1,0,0.1,0.1c0,0,0.1,0.1,0.1,0.1c0,0,0,0.1,0,0.1c0,0.1-0.1,0.2-0.2,0.2c0,0,0.1,0.1,0.1,0.2
						c0,0.1,0.1,0.1,0.1,0.2C28.6,38.1,28.6,38.1,28.6,38.2L28.6,38.2z M29.6,38.3l-0.4,0l0-0.1c0,0,0.1,0,0.1,0c0,0,0,0,0,0
						c0,0,0,0,0,0l0,0l0-0.1L29,38l0,0c0,0,0,0.1,0,0.1c0,0,0,0,0,0c0,0,0,0,0.1,0l0,0.1l-0.3,0l0-0.1c0.1,0,0.1,0,0.2-0.1l0.3-0.7
						l0.1,0l0.2,0.7C29.5,38.1,29.5,38.2,29.6,38.3C29.6,38.2,29.6,38.2,29.6,38.3L29.6,38.3z M30.6,37.5L30,38.2l0.2,0
						c0.1,0,0.1,0,0.1,0c0,0,0.1,0,0.1-0.1c0,0,0-0.1,0.1-0.1l0.1,0l0,0.3l-0.8-0.1l0-0.1l0.5-0.7l-0.1,0c-0.1,0-0.2,0-0.2,0
						c0,0-0.1,0.1-0.1,0.1l-0.1,0l0-0.2L30.6,37.5L30.6,37.5z M31.6,38.3c-0.1,0.1-0.2,0.1-0.4,0.1c-0.1,0-0.2,0-0.3-0.1
						c-0.1,0-0.1-0.1-0.2-0.2c0-0.1,0-0.1,0-0.2c0-0.1,0-0.2,0.1-0.2c0-0.1,0.1-0.1,0.2-0.2c0.1,0,0.2,0,0.2,0
						c0.2,0,0.3,0.1,0.4,0.2c0.1,0.1,0.1,0.2,0.1,0.3C31.8,38.1,31.7,38.2,31.6,38.3z M32.9,37.6C32.9,37.6,32.9,37.6,32.9,37.6
						c-0.1,0-0.1,0-0.1,0.1c0,0,0,0,0,0.1l0,0.7h-0.1l-0.6-0.6l0,0.4c0,0.1,0,0.1,0,0.1c0,0,0.1,0,0.1,0v0.1h-0.3v-0.1
						c0,0,0.1,0,0.1,0c0,0,0,0,0,0c0,0,0,0,0-0.1l0-0.5c0-0.1,0-0.1-0.1-0.1v-0.1l0.3,0l0.5,0.5l0-0.3c0-0.1,0-0.1-0.1-0.1v-0.1
						L32.9,37.6L32.9,37.6z M34.4,38.2c-0.1,0.1-0.2,0.1-0.4,0.1c-0.1,0-0.2,0-0.3-0.1c-0.1,0-0.1-0.1-0.2-0.2
						c0-0.1-0.1-0.1-0.1-0.2c0-0.1,0-0.2,0.1-0.2c0-0.1,0.1-0.1,0.2-0.2c0.1,0,0.2-0.1,0.2-0.1c0.2,0,0.3,0,0.4,0.1
						c0.1,0.1,0.1,0.2,0.1,0.3C34.5,38,34.5,38.1,34.4,38.2z M35.2,38.3L35.2,38.3L35.2,38.3c0.1-0.1,0.1-0.1,0.1-0.1c0,0,0,0,0-0.1
						l0-0.5c0,0,0-0.1,0-0.1c0,0,0,0-0.1,0l0,0l0-0.1l0.5,0l0,0.1l0,0c0,0-0.1,0-0.1,0c0,0,0,0,0,0.1l0,0.5c0,0,0,0.1,0,0.1
						c0,0,0,0,0,0c0,0,0.1,0,0.1,0c0.1,0,0.1,0,0.2-0.1c0,0,0.1-0.1,0.1-0.2l0.1,0l0,0.3L35.2,38.3z M36.5,38.2L36.5,38.2
						C36.5,38.1,36.6,38.1,36.5,38.2c0.1-0.1,0.1-0.1,0.1-0.1c0,0,0,0,0,0l0,0l0-0.1l-0.3,0l0,0c0,0,0,0.1,0,0.1c0,0,0,0,0,0
						c0,0,0,0,0.1,0l0,0.1l-0.3,0l0-0.1c0.1,0,0.1-0.1,0.1-0.2l0.2-0.7l0.1,0l0.4,0.7c0,0.1,0.1,0.1,0.1,0.1c0,0,0,0,0.1,0l0,0.1
						L36.5,38.2z M38,37.3C38,37.3,38,37.2,38,37.3c-0.1-0.1-0.1-0.1-0.1-0.1c0,0,0,0-0.1,0l-0.1,0l0,0.3l0.1,0c0,0,0.1,0,0.1,0
						c0,0,0,0,0-0.1L38,37.3l0,0.4l-0.1,0c0,0,0-0.1,0-0.1c0,0,0,0-0.1,0l-0.1,0l0,0.2c0,0,0,0.1,0,0.1c0,0,0,0,0.1,0l0,0l0,0.1
						l-0.5,0.1l0-0.1l0,0c0,0,0.1,0,0.1,0c0,0,0,0,0-0.1l-0.1-0.5c0,0,0-0.1,0-0.1c0,0,0,0-0.1,0l0,0l0-0.1l0.7-0.1L38,37.3L38,37.3
						z M39.1,37.1l0.1,0.3c0,0.1,0,0.1,0,0.2c0,0,0,0.1,0,0.1c0,0-0.1,0.1-0.1,0.1c0,0-0.1,0.1-0.2,0.1c-0.1,0-0.1,0-0.2,0
						c-0.1,0-0.1,0-0.1-0.1c0,0-0.1-0.1-0.1-0.1c0,0,0-0.1,0-0.1l-0.1-0.3c0,0,0-0.1,0-0.1c0,0,0,0-0.1,0l0-0.1l0.5-0.1l0,0.1l0,0
						c0,0-0.1,0-0.1,0c0,0,0,0,0,0.1l0.1,0.3c0,0.1,0,0.1,0,0.1c0,0,0,0.1,0.1,0.1c0,0,0.1,0,0.1,0c0.1,0,0.1,0,0.1-0.1
						c0,0,0.1-0.1,0.1-0.1c0,0,0-0.1,0-0.2L39.1,37.1C39,37,38.9,37,38.8,37l0-0.1l0.3-0.1l0,0.1c0,0,0,0-0.1,0
						C39.1,37,39.1,37,39.1,37.1C39.1,37,39.1,37.1,39.1,37.1z M39.5,37.7L39.5,37.7L39.5,37.7c0-0.1,0.1-0.1,0.1-0.1c0,0,0,0,0-0.1
						L39.4,37c0,0,0-0.1,0-0.1c0,0,0,0-0.1,0l0,0l0-0.1l0.7-0.2l0.1,0.2l-0.1,0c0,0,0-0.1-0.1-0.1c0,0,0,0-0.1,0c0,0,0,0-0.1,0
						l-0.2,0l0.1,0.3l0.1,0c0,0,0.1,0,0.1,0c0,0,0,0,0-0.1l0.1,0l0.1,0.3l-0.1,0c0,0,0,0,0,0c0,0,0,0,0-0.1c0,0,0,0-0.1,0l-0.1,0
						l0,0.2c0,0,0,0.1,0,0.1c0,0,0,0,0,0c0,0,0.1,0,0.1,0c0.1,0,0.1,0,0.1,0c0,0,0-0.1,0.1-0.1c0,0,0-0.1,0-0.1l0.1,0l0.1,0.3
						L39.5,37.7z M41.1,37.3c0,0-0.1-0.1-0.2-0.2c0,0-0.1-0.1-0.1-0.1c0,0,0,0,0,0c0,0,0,0-0.1,0l0.1,0.2c0,0,0,0.1,0,0.1
						c0,0,0,0,0.1,0l0,0l0,0.1l-0.5,0.1l0-0.1l0,0c0,0,0.1,0,0.1,0c0,0,0,0,0-0.1l-0.1-0.5c0,0,0-0.1,0-0.1c0,0,0,0-0.1,0l0,0l0-0.1
						l0.3-0.1l0.1,0c0.1,0,0.1,0,0.2,0c0,0,0.1,0,0.1,0c0,0,0.1,0,0.1,0.1c0,0,0,0.1,0.1,0.1c0,0.1,0,0.2-0.1,0.3
						c0,0,0.1,0.1,0.2,0.1c0.1,0.1,0.1,0.1,0.2,0.1c0,0,0,0,0.1,0l0,0.1L41.1,37.3z M41.5,37.2L41.5,37.2l0.2-0.9l-0.1,0
						c-0.1,0-0.1,0.1-0.2,0.1c0,0,0,0.1,0,0.1l-0.1,0l-0.1-0.2l0.7-0.2l0,0.1L41.8,37l0.2-0.1c0.1,0,0.1,0,0.1-0.1c0,0,0,0,0.1-0.1
						c0,0,0-0.1,0-0.1l0.1,0l0.1,0.3L41.5,37.2z M42.9,36.7L42.9,36.7c0-0.1,0-0.1,0-0.1c0,0,0,0,0,0c0,0,0,0,0,0l0,0l0-0.1
						l-0.3,0.1l0,0c0,0,0,0.1,0,0.1c0,0,0,0,0,0c0,0,0,0,0.1,0l0,0.1l-0.3,0.1l0-0.1c0.1,0,0.1-0.1,0.1-0.2l0-0.7l0.1,0l0.5,0.5
						c0,0.1,0.1,0.1,0.1,0.1c0,0,0,0,0.1,0l0,0.1L42.9,36.7z"/>
				</g>
			</g>
			<g>
				<g>
					<g>
						<path class="st2" d="M28.5,23c-0.2-0.1-0.4-0.2-0.5-0.3c-0.1,0.1-0.3,0.2-0.5,0.3H28.5z"/>
					</g>
					<g>
						<path class="st2" d="M30.8,22.8c-0.1,0-0.3,0.1-0.4,0.2c0,0,0,0-0.1,0h4c0,0-0.1,0-0.1,0c-0.1-0.1-0.3-0.1-0.4-0.2
							c0,0,0,0,0,0c-0.2-0.1-0.4-0.1-0.5-0.2h-2C31.2,22.6,31,22.7,30.8,22.8C30.8,22.8,30.8,22.8,30.8,22.8z"/>
					</g>
					<g>
						<path class="st2" d="M36.8,22.7C36.8,22.7,36.8,22.7,36.8,22.7c-0.1,0.1-0.2,0.2-0.4,0.3h0.8C37.1,22.9,36.9,22.8,36.8,22.7
							C36.8,22.7,36.8,22.7,36.8,22.7z"/>
					</g>
				</g>
				<g>
					<g>
						<path class="st2" d="M27.5,30.7v-2.1C27.3,29,27.1,29.9,27.5,30.7z"/>
					</g>
				</g>
				<g>
					<polygon class="st2" points="32.3,27.2 28.5,26 31.5,26 					"/>
				</g>
				<g>
					<path class="st2" d="M32.3,23.3h-5.1c0,0,0,0,0,0c0,0.1,0,0.1,0.1,0.1c0,0,0.1,0.1,0.2,0.3h4.7L32.3,23.3z"/>
				</g>
				<g>
					<path class="st2" d="M32.1,24h-4.5c0.1,0.1,0.1,0.3,0.2,0.4H32L32.1,24z"/>
				</g>
				<g>
					<path class="st2" d="M31.9,24.6H28c0.1,0.1,0.1,0.3,0.1,0.4h3.7L31.9,24.6z"/>
				</g>
				<g>
					<path class="st2" d="M31.7,25.3h-3.5c0,0.1,0.1,0.3,0.1,0.4h3.3L31.7,25.3z"/>
				</g>
				<g>
					<path class="st2" d="M29.5,26.7h-1.2c0,0.1,0,0.3-0.1,0.4H30L29.5,26.7z"/>
				</g>
				<g>
					<path class="st2" d="M29.1,26.4L28.5,26h-0.2c0,0,0,0,0,0c0,0.1,0,0.2,0,0.4H29.1z"/>
				</g>
				<g>
					<path class="st2" d="M32.4,23.3L32.4,23.3L32.4,23.3l0,0.4V24v0.4v0.3v0.4v0.3v0.4v1.5l3.8-1.2h-3l-0.1-0.3h3.4
						c0-0.1,0-0.3,0.1-0.4H33l-0.1-0.3h3.7c0-0.1,0.1-0.3,0.2-0.4h-4l-0.1-0.3h4.2c0.1-0.2,0.1-0.3,0.2-0.4h-4.6l-0.1-0.3h4.8
						c0.1-0.2,0.2-0.3,0.3-0.4c0,0,0,0,0-0.1H32.4z"/>
				</g>
				<g>
					<g>
						<path class="st2" d="M33.3,29.4v3.1c0.1-0.1,0.3-0.2,0.4-0.2v-2.6L33.3,29.4z"/>
					</g>
				</g>
				<g>
					<g>
						<path class="st2" d="M32.6,28.9v4.4c0.1-0.1,0.1-0.2,0.2-0.3l0,0c0.1-0.1,0.1-0.2,0.2-0.3v-3.5L32.6,28.9z"/>
					</g>
				</g>
				<g>
					<g>
						<path class="st2" d="M31.9,29.1v3.6c0.1,0.1,0.2,0.2,0.3,0.4l0,0c0,0,0,0.1,0.1,0.1v-4.4L31.9,29.1z"/>
					</g>
				</g>
				<g>
					<g>
						<path class="st2" d="M31.2,29.6v2.7c0.1,0,0.3,0.1,0.4,0.2v-3.2L31.2,29.6z"/>
					</g>
				</g>
				<g>
					<path class="st2" d="M33.9,32.2c0.1,0,0.3-0.1,0.4-0.1v-1.8l-0.4-0.3V32.2z"/>
				</g>
				<g>
					<path class="st2" d="M30.5,32.1c0.1,0,0.3,0,0.4,0.1v-2.4l-0.4,0.3V32.1z"/>
				</g>
				<g>
					<path class="st2" d="M32.3,27.2l-1.4,0.5l-0.5-0.4h-2.3c0,0.1-0.1,0.3-0.2,0.4l0,0l0,0c0,0.1-0.1,0.2-0.1,0.3v3
						c0.1,0.1,0.2,0.2,0.4,0.4v-3.7h0.3v3.9c0.1,0.1,0.3,0.1,0.4,0.2v-4.1h0.3v4.2c0.1,0,0.3,0.1,0.4,0.1v-4.2h0.3V32
						c0.1,0,0.1,0,0.2,0c0,0,0.1,0,0.2,0v-1.7L30,30.5L32.3,27.2z M30.2,27.8h0.3V29l-0.3,0.8V27.8z"/>
				</g>
				<g>
					<path class="st2" d="M36.8,27.8L36.8,27.8L36.8,27.8c-0.1-0.1-0.1-0.3-0.2-0.4h-2.3l-0.5,0.4l-1-0.4l-0.4-0.1l2.3,3.2v1.6
						c0.2,0,0.3,0,0.3,0c0,0,0.1,0,0.1,0v-4.3h0.3V32c0.1,0,0.3,0,0.4-0.1v-4.2H36v4.1c0.2,0,0.3-0.1,0.4-0.2v-3.9H36.8l-0.1,3.8
						c0.2-0.1,0.3-0.2,0.4-0.3l0,0c0,0,0,0,0,0v-2.8C37,28.2,36.8,28,36.8,27.8z M34.6,30.4l-0.3-0.8v-1.8h0.3V30.4z"/>
				</g>
				<g>
					<path class="st2" d="M34.6,27.1h1.9c0-0.2-0.1-0.3-0.1-0.4h-1.2L34.6,27.1z"/>
				</g>
				<g>
					<path class="st2" d="M36.2,26l-0.6,0.4h0.8c0-0.1,0-0.2,0-0.3c0,0,0-0.1,0-0.1H36.2z"/>
				</g>
			</g>
			<g>
				<g>
					<path class="st2" d="M38.4,17.9c0.1,0,0.2,0,0.3,0c1.3-0.3,1.3-1.9,1.1-2c0,0,0,0,0,0c0,0.1-0.1,0.2-0.1,0.3
						c-0.1,0.2-0.2,0.3-0.2,0.3c0,0,0,0,0,0c0.3-0.5,0.3-0.9,0.1-1.4c-0.1-0.3-0.3-0.5-0.5-0.7c-0.6-0.5-1.9-0.5-2.6,0
						c-0.2-0.2-0.6-0.4-0.9-0.6c-0.1,0.4-0.5,0.9-0.9,1.2c-0.1,0-0.3,0.2-0.4,0.2c0,0-0.1,0,0-0.1c0.7-0.4,1-0.9,1-1.6v0
						c0-0.3-0.1-0.9-0.5-1.4c-0.6-0.7-2.3-0.8-3.1-0.1c-0.2,0.2-0.3,0.5-0.4,0.8c0.1-0.2,0.3-0.5,0.6-0.6c0.3-0.1,1,0,1.1,0.4
						c-0.6-0.6-1.6-0.2-1.8,0.8c0,0,0,0,0,0c0,0.1,0,0.1,0,0.1l0,0c0,0-0.1,0-0.1-0.5c0-0.3,0.1-0.6,0.2-0.9
						c-1.3-0.2-2.8,0.4-2.8,2.3c0,0.3,0.1,0.5,0.4,0.8c0,0.1,0,0.1,0,0.1c0,0-0.2-0.1-0.3-0.2c-0.1-0.2-0.2-0.4-0.3-0.6
						c-0.8-0.3-1.3-0.3-1.8-0.3c-0.5,0-1.1,0.5-1.3,0.8c-0.1,0.1-0.2,0.3-0.3,0.5c-0.2,0.3-0.3,0.7-0.2,1.1c0.1,0.7,0.4,1.4,1,1.7
						c0.7,0.4,1.7,0.4,2,0.3c0.2,0,0.4-0.1,0.6-0.2c0,0,0.1,0,0.1-0.1c0,0,0,0,0,0C28.8,18,29,17.6,29,17c0,0,0,0,0,0
						c0,0,0.1,0.1,0.1,0.3c0,0.2-0.1,0.4-0.1,0.6c0,0,0,0.1,0,0.1c0,0.1,0,0.2,0.1,0.2c0.1,0.2,0.5,0.2,0.8,0.1c0,0,0,0,0,0
						c0,0-0.2,0.2-0.5,0.2c-0.1,0-0.1,0-0.2,0c0.2,0.3,0.7,0.5,1.3,0.5c0,0,0,0,0,0c0,0-0.1,0.1-0.3,0.1c-0.3,0-0.6-0.1-0.8-0.2
						c0.3,0.3,0.7,0.6,1.5,0.7c0,0.1-0.6,0-0.8,0c0.4,1.4,1.1,1.2,1.1,1.3c-0.2,0.1-0.4,0.3-0.2,0.6c0.8-0.3,1.4-0.3,1.6-0.3
						c0.2,0,0.8,0,1.6,0.3c0.1-0.1,0.1-0.2,0-0.4C34,21,32.9,20.7,31.9,21c0,0-0.1,0-0.1,0.1c0,0,0,0,0,0c0,0,0,0,0,0c0,0,0,0,0,0
						c0,0,0,0,0,0c0,0,0.1-0.1,0.1-0.1c0.4-0.2,1.3-0.3,1.8-0.1c0,0,0,0,0,0c0.4,0.2,0.8-0.3,0.7-0.6c0.3,0,0.6-0.2,0.6-0.5
						c-0.1,0-0.1,0.1-0.2,0.1v0c-0.1,0.1-0.2,0.1-0.2,0c0,0,0,0,0,0h0c0,0,0,0,0,0c0,0,0,0,0,0c0,0,0.1,0,0.1-0.1
						c0.6-0.3,0.9-1,0.8-1.2c-0.1,0.1-0.2,0.2-0.4,0.2c-0.1,0-0.1,0-0.1,0c0,0,0,0,0,0c0.1,0,0.1,0,0.2-0.1c0.2-0.1,0.4-0.4,0.5-0.6
						c-0.4-0.3-0.5-0.8-0.7-1.3c-0.1-0.2-0.3-0.4-0.5-0.4c0,0-0.1,0-0.1,0c0,0-0.1,0-0.1,0c0,0,0,0,0,0c0.3-0.2,0.6,0,0.8,0.1
						c0-0.5,0.2-0.6,0.2-0.6c0,0,0,0,0,0c-0.4,1.1,0.3,2.1,0.9,2.4c0.7,0.4,2.1,0.5,3-0.3l0,0C39,18,38.8,18,38.7,18
						C38.5,18,38.4,18,38.4,17.9C38.4,17.9,38.4,17.9,38.4,17.9z M26.4,17.9c0.5-0.1,0.9-0.4,0.8-0.8c0-0.1-0.1-0.2-0.3-0.2
						c-0.3,0-0.4,0.2-0.6,0.4c0-0.4,0.3-0.7,0.7-0.6c0.2,0,0.5,0.2,0.6,0.5C27.7,17.6,27.1,17.9,26.4,17.9z M28.1,17.4
						c0.2-0.5,0.3-1.4-0.6-1.6c-0.7-0.2-1.3,0.3-1.6,0.6c0.2-0.6,0.9-1.1,1.8-0.9c-0.2-0.5-0.8-0.7-1.6-0.3
						c-0.2,0.1-0.3,0.2-0.4,0.3c0.1-0.4,0.5-0.7,0.8-0.8c0.6-0.2,1.2,0,1.5,0.3C28.9,16,28.4,17.3,28.1,17.4z M32.5,20.2
						c-0.4,0-0.4-0.3-0.5-0.6c0.2,0.1,0.4,0.3,0.4,0c-0.1-0.1-1-0.4-0.8-0.7c0.1-0.2,0.6,0.6,0.8,0.4c0.1-0.6-1.7-0.7-1.6-1.2
						c0-0.3,1.4,0.7,1.6,0.7c0-0.3-2.1-1.1-2.7-2.2c0-0.1-0.1-0.2-0.1-0.2c0,0,0,0,0,0c0.4,0.6,1.4,1.4,2.6,1.8
						C32.6,18.2,32.8,19.5,32.5,20.2z M33,20.6c-0.1,0-0.1-0.3-0.1-0.4c0-0.6,0-1.1-0.2-1.6c-0.1-0.2-0.3-1-0.8-2
						c0.2,0.2,1,1.4,1.1,2.4C33.1,19.4,33.2,20.1,33,20.6z M33.6,17.1c0.4,0.2-0.2,0.9-0.2,1c0.1,0,0.4-0.4,0.5-0.3
						c0.2,0.2-0.4,0.9-0.6,1C32.5,17.7,33.6,17.4,33.6,17.1z M33.5,20.2c-0.1-0.1-0.1-0.3-0.1-0.4c0-0.3,0.4-0.4,0.5-0.5
						C33.9,19.3,33.9,19.8,33.5,20.2z M33.4,19.5c-0.2-0.3,0.3-0.6,0.4-0.9C34.3,18.5,33.6,19.4,33.4,19.5z M33.9,12.1
						c0,0,0.7,0.2,0.9,0.8c0,0.4-0.2,0.6-0.3,0.5c0,0,0,0,0,0c0.1-0.3,0.1-0.7-0.2-1C34.2,12.2,33.9,12.1,33.9,12.1z M38.2,16.3
						C38.2,16.3,38.2,16.3,38.2,16.3C38.2,16.3,38.2,16.3,38.2,16.3c0-0.1,0-0.2,0-0.2c0-0.2,0-0.3,0-0.5c-0.2-0.8-0.9-1.1-1.4-0.6
						c0,0,0.5-1,1.7-0.6c0.3,0.1,0.5,0.3,0.7,0.7c0.1,0.3,0.1,0.7,0,0.8c0,0,0,0,0,0c0,0,0,0,0,0c0-0.2,0-0.5-0.1-0.8
						c-0.1-0.1-0.2-0.4-0.4-0.4c0.1,0.2,0.2,0.3,0.3,0.4c0.1,0.2,0.1,0.3,0.1,0.4c0,0.4-0.2,0.8-0.3,1c0,0,0,0,0,0c0,0,0,0,0,0
						c0.2-0.5,0.2-0.8,0-1.2c0,0,0-0.1-0.1-0.1c-0.1-0.3-0.4-0.5-0.7-0.5c0.2,0.1,0.3,0.3,0.4,0.5C38.5,15.5,38.5,16.1,38.2,16.3z"
						/>
				</g>
			</g>
			<g>
				<path class="st2" d="M49.9,26.8c-0.1-2-0.3-3.8-0.8-5.4c-0.3-1-0.9-3.1-2.2-3.4c-0.6-0.1-1.1,0.5-1.1,1c0,0.5,0.3,0.7,0.2,1.1
					c-0.2,0.3-0.3,0.6-0.4,0.9c-0.1,0.3,0.2,0.5,0.1,0.8c-0.4-0.1-0.6,0.3-1.2,0.2c-0.5,0.2-1.1,0.1-1.1,0.1c0,0,0,0,0,0
					c0.6,0,1.1-0.2,1.3-0.5c0.1-0.4,0-1-0.3-1.2c-0.3,0.1-0.5,0.4-1.7,0.3c-1-0.1-1.2,0.1-1.4,0.7c-0.1-0.1-0.1-0.2,0-0.3
					c0-0.3,0.4-0.5,0.8-0.6c0.1-0.1,0.1-0.3,0.1-0.4c-0.2,0-0.3,0-0.5,0c-0.5,0.1-1.1,0.3-1.3,0.8c0,0.1,0,0.2,0,0.2
					c0,0.1,0,0.1,0,0.2c0,0.1,0,0.1,0,0.2c0.2,0.3,0.5,0.5,1.3,0.5c0,0,0,0,0,0c0,0-0.2,0.1-0.4,0c0,0-0.7,0-1.1-0.4
					c0,0,0,0.1-0.1,0.1c-0.2,0.2-0.6,0.4-0.9,0.4c-0.4,0-0.8-0.2-0.9-0.4c-0.5-0.6,0.1-1.7,0.1-2.1c0-1.1-1.5-0.6-2.1-0.3
					c-0.6,0.3-1.2,0.9-1.6,1.4c-0.2,0.3-0.5,0.6-0.6,1c0.2,0.1,0.8,0.3,1.2,0.3l0,0c0,0,0.1,0,0.2,0c0.2,0,0.6,0,1-0.3
					c0,0,0.2-0.1,0.3-0.1c0.1,0,0.3,0.1,0.4,0.2c0.1,0.1,1,0.8,1.3,1c0,0,0.1,0.1,0.1,0.2c0,0.1,0,0.2-0.1,0.3
					c-0.1,0.1-0.5,0.6-0.9,1.4l0,0c0,0.1-0.1,0.2-0.1,0.3c-0.1,0.4-0.2,1,0.4,1.2c0,0,0.6,0.2,0.6-0.9c0,0,0.1,0.7,0.6,0.6
					c0.2,0,0.4-0.2,0.4-0.7l0,0c0-0.4,0-0.9,0-1.4c0,0,0,0,0-0.1c0,0,0,0.1,0,0.3c0,0.3-0.2,2.6,1.8,4.2c0,0-0.8-0.4-1.4-1.4
					c-0.3,0.2-0.8,0.6-0.6,1.5c0.1,0.3,0.3,0.6,0.5,0.7c0,0,0,0,0,0c0,0-0.1,0.1-0.3-0.1l0,0c0,0-0.1-0.1-0.1-0.1
					c-0.1-0.1-0.1-0.2-0.2-0.3c-0.2-0.2-0.4-0.4-0.6-0.6v0c-0.2-0.3-0.1-1.3-1-1.3c0,0,0,0-0.1,0l0,0l0,0c0,0-0.1,0-0.2,0
					c0,0,0,0,0,0c-0.2-0.8-0.2-1.4-0.2-1.4c0.2-1.2,1-2.2,1.1-2.3c0,0,0.1-0.1,0.1-0.2c0,0,0-0.1-0.1-0.1l0,0c-0.3-0.2-1.2-1-1.3-1
					l0,0C37.2,22,37.2,22,37.1,22C37,22,36.9,22,36.9,22c-0.4,0.3-0.8,0.4-1.1,0.4c-0.1,0-0.2,0-0.2,0h0c-0.5,0-1.2-0.3-1.3-0.4h0
					c-0.9-0.4-1.6-0.4-1.8-0.4c-0.1,0-0.8,0-1.8,0.4l0,0c-0.1,0.1-0.8,0.4-1.3,0.4h0c0,0-0.1,0-0.2,0c-0.3,0-0.7,0-1.1-0.4l0,0
					c0,0-0.1-0.1-0.2-0.1c-0.1,0-0.2,0-0.2,0.1l0,0c-0.1,0.1-1,0.8-1.3,1l0,0c0,0,0,0,0,0.1c0,0.1,0,0.1,0.1,0.2
					c0.1,0.1,0.9,1.1,1.1,2.3c0,0,0,0.2,0,0.5c-0.1-0.3-0.2-0.5-0.2-0.6c0-0.1-0.1-0.2-0.1-0.3v0l0,0c-0.1-0.2-0.3-0.4-0.5-0.5
					c-0.2-0.1-0.3-0.1-0.5-0.2c-0.2-0.2-0.5-0.3-0.7-0.7c0-0.6-0.3-1.1-0.3-1.1c0.1,0,0.5,0.2,0.5,0.9c0.4-0.5,0.7-1.1,0.8-1.9
					c0.3-0.5,1.3-0.3,1.6-0.2c0.1,0,0.2,0,0.3,0.1c0.1,0.1,0.1,0.2,0.3,0.3c0.1,0.1,0.3,0,0.5,0c0.1,0.1,0.1,0.2,0.1,0.2
					c0.1,0,0.1,0,0.1,0l0,0h0c0.5,0,1.2-0.3,1.3-0.4l0,0c0,0,0.1,0,0.1,0c-0.2-0.2-0.5-0.3-0.8-0.4c-0.3-0.1-0.5-0.4-0.9-0.4
					c-0.1,0-0.4-0.1-0.5,0c-0.7,0.1-1.3-0.2-1.9-0.2c-0.7,0-0.7,0.4-0.9,0.8c-0.1,0.1-0.2,0.3-0.3,0.4c-0.2,0.2-0.4,0.2-0.6,0.4
					c0,0,0,0,0,0c0-0.2-0.1-0.6-0.3-0.8c0,0,0,0,0,0c0,0,0-0.1,0-0.1c-0.4-0.6-0.8-1-1.6-1.2C22.7,20,22.7,20,22.6,20
					c-0.1-0.1,0-0.2,0-0.2c0.2-0.1,0.6-0.1,0.9-0.2c0.6-0.3,0.4-0.8,0.2-0.9c-0.3-0.1-0.9-0.2-1-0.3c-0.2-0.1-0.2-0.4-0.5-0.4
					c-0.2-0.1-0.4-0.1-0.5,0c-0.2,0-0.3,0.1-0.4,0.1c0.1-0.2,0.4-0.3,0.7-0.3c-0.3-0.1-0.2-0.5-0.4-0.6c-0.1,0-0.3,0-0.5,0.1
					c0-0.1-0.1-0.6-0.4-0.8c-0.2-0.1-0.3,0.1-0.3,0.2c0,0.1,0.3,0.2,0.4,0.7c-0.1,0-0.1,0.1-0.2,0.1c0-0.2-0.1-0.5-0.3-0.6
					C20.1,16.7,20,16.9,20,17c0,0.1,0.3,0.2,0.4,0.6c-0.1,0.1-0.1,0.1-0.2,0.2c-0.4-0.1-0.5-0.4-0.6-0.4c-0.1,0-0.3,0-0.2,0.3
					c0.1,0.2,0.4,0.3,0.6,0.4c0,0-0.1,0.1-0.1,0.1c-0.5-0.1-0.6-0.4-0.7-0.4c-0.1,0-0.3,0-0.2,0.3c0.1,0.3,0.6,0.4,0.7,0.4
					c-0.1,0.1-0.1,0.3-0.1,0.3c-0.4,0-1.1,0.2-0.9,0.6c0.1,0.1,0.6-0.3,1-0.1c0.3,0.4,0.7,0.4,0.8,0.5c0.1,0.1,0.2,0.3,0.2,0.5
					c0.1,0.4,0.4,0.7,0.6,1c0.2,0.4,0.5,0.7,0.7,1c0,0.1,0.1,0.2,0,0.3c-0.3,0.4-1.1,1-1.5,1.3c-0.3,0.3-3.6,2.8-4,3.9
					c-0.1,0.2-0.1,0.6-0.1,0.9c-0.2,0.1-0.6,0-0.7-0.1c-0.2-0.3,0.2-0.5,0.1-0.8c-0.1-0.1-0.2-0.2-0.4-0.1c-0.2,0.1-0.3,0.6-0.2,0.9
					c0,0.1,0.2,0.2,0.1,0.3c-0.1,0-0.2-0.1-0.2-0.3c-0.1,0-0.1,0.2-0.1,0.3c0.1,0.2,0.4,0.2,0.5,0.3c0,0.1-0.2,0.2-0.3,0.1
					c-0.2,0.3,0,0.4,0.1,0.4c0.2,0,0.4-0.1,0.5-0.2c0.1,0.1,0,0.2-0.2,0.2c0.3,0.4,0.6-0.3,1-0.2c0.1,0,1.1,1,1,1.7
					c0,0,0,0.1-0.1,0.2c-0.2,0.3-0.6,0.5-0.9,0.8c-0.5,0.3,0.5,2.5,0.4,3.6c-0.1,0.4,0.4,0.4,0.6,1.1c-0.3,0-0.5,0.1-0.7,0.3
					c0,0,0,0,0,0.1l0,0c0,0.1-0.1,0.2-0.1,0.3c0,0.3,0.2,0.5,0.5,0.5c0.3,0,0.5-0.2,0.5-0.5c0,0,0-0.1,0-0.1c0.1,0,0.3,0,0.4,0.1
					l0.5,0.3c0,0-1.7,1.4-4.4,0.6c0,0-1.2-0.4-0.9-1.5c0,0,0.1-0.2,0.2-0.3c0,0.2,0.1,0.3,0.2,0.4c0.1,0.1,0.2,0.1,0.4,0.1
					c0.3,0,0.6-0.3,0.6-0.6c0-0.2-0.1-0.3-0.2-0.4c0,0-0.1,0-0.1-0.1c0,0,0,0,0,0c0,0,0,0,0,0c-0.2-0.1-0.5-0.2-0.9-0.1
					c0,0-1.2,0.3-0.8,1.6c0,0-0.8-0.2-1.1,0.2c0,0-0.1,0.1-0.1,0.3c0,0,0,0,0,0c0,0,0,0,0,0c0,0.1,0,0.2,0.1,0.3
					c0.1,0.1,0.2,0.2,0.4,0.2c0.1,0,0.3-0.1,0.4-0.2c0,0,0,0,0,0c0,0,0.1-0.1,0.3,0.1c0,0,1.1,1.2,2.8,1.1c0,0,0,0.8,0.6,1
					c0,0,0.1,0,0.1,0c0.2,0,0.3-0.1,0.3-0.3c0-0.2-0.1-0.3-0.3-0.3c0,0,0,0,0,0c0,0-0.1-0.3,0-0.5c0,0,1.8-0.2,3-1.2
					c0,0,0.8,0.2,1.4,0.3c0,0,0.1,0.2-0.3,0.2c0,0-0.5,0-0.5,0.1c0,0,0,0.2,0.3,0.2c0,0,0,0.2,0.3,0.3c0,0,0.2,0.1,0.1,0.2
					c0,0-0.4,0.2-0.3,0.4c0,0,0.1,0.3,0.6,0.2c0,0,0.2,0,0,0.1c0,0-0.2,0.3,0.2,0.5c0,0,0.3,0.2,0.5-0.2c0,0,0-0.1,0.3,0
					c0,0,1.1,0.5,1.6-0.3c0,0,0-0.1,0.2,0.1c0,0,0.6,0.7,2.1,0.7c0.1,0.2,0.3,0.3,0.5,0.3c0.3,0,0.5-0.2,0.6-0.5
					c0.2,0,0.8-0.1,1.5-0.5c0,0,0.3-0.2,0.5-0.3c0,0.4,0.4,0.8,0.8,0.8c0.4,0,0.8-0.4,0.8-0.8c0-0.4-0.3-0.7-0.6-0.8
					c0,0-0.5-0.1-1.3,0.3c0,0-0.6,0.4-0.7,0.4c0,0,0.1-0.7,0.2-1.4c-0.1,0-0.2,0-0.3,0c-0.1,0.7-0.2,1.5-0.5,1.5L27,40.1
					c0-0.1,0-0.1-0.1-0.1c-0.1-0.1-0.2-0.2-0.4-0.2c0,0,0,0,0,0c-0.2,0.1-0.3,0.2-0.3,0.4c-0.1,0-0.8,0.1-1.1-0.1
					c0,0,0.7-0.2,0.7-0.5c0,0,0.2-0.4-0.5-0.7c0,0-0.5-0.3-0.6,0c0,0,0,0.1,0.2,0.3c0,0,0.2,0.2-0.2,0.2c0,0-0.3,0-0.4-0.1
					c0,0,0.1-0.8,0.3-1.4c-0.2,0-0.3-0.1-0.5-0.1c-0.1,0.2-0.1,0.4-0.2,0.6c0,0,0,0.5-0.2,0.6c0,0-0.6-0.5-0.4-1.4
					c-0.2-0.1-0.4-0.1-0.6-0.2c0,0.4,0.1,1.1,0.7,2.2c0,0-0.5,0.7-1.1,0.3c0,0-0.8-0.5-0.3-0.9c0,0,0.3-0.3,0.5,0.1
					c-0.2,0-0.3,0.1-0.3,0.3c0,0.2,0.1,0.3,0.3,0.3c0.2,0,0.3-0.1,0.3-0.3c0-0.1,0-0.5-0.3-0.7c0,0-0.3-0.3-0.7-0.2
					c0,0,0.4-0.6,0.5-1c0,0,0-0.1,0-0.2c-0.1,0-0.2-0.1-0.4-0.1c0,0.5-0.2,1.3-0.8,1.1c0,0,0.4-0.7,0.7-1.1
					c-0.3-0.1-0.5-0.2-0.7-0.3c0,0,0,0-0.1,0c0,0.2,0.1,0.7-0.2,0.9c0,0-0.3,0.3-0.9-0.1c0,0,0.7-0.6,0.9-0.8
					c-0.2-0.1-0.4-0.1-0.6-0.1h-0.2c0,0,0,0,0,0c0,0-0.5,0.3-0.8,0.5c0,0-0.1,0.1-0.2,0c0,0-0.6-0.7-0.1-1.4c0,0,0.3-0.6,0.8-0.5
					c0,0,0.2,0,0.3,0.2c0,0-0.5,0-0.5,0.4c0,0,0,0.4,0.5,0.4c0,0,0.7-0.1,0.5-0.9c0,0-0.1-0.5-0.5-0.5c0,0,0.2-0.3,0.1-0.4
					c0,0-0.2-0.2-0.5,0.1c0,0-0.1,0.2-0.5,0.1c0,0-0.3-0.1-0.5,0.1c0,0-0.1,0-0.1,0.4c0,0,0,0.1-0.2,0.5c0,0-0.1,0.2-0.1,0.6
					c-0.1-0.1-0.3-0.2-0.5-0.2c-0.2-0.2-0.2-1.3-0.5-1.9c-0.1-0.1,0.1-0.7,0.1-1.3c1.7-0.3,2.3-1.6,2.5-2.2c0.3-0.9-0.1-1.8-0.1-2.1
					c0,0,0,0,0,0c0.1,0.1,0.1,0.3,0.2,0.4c0.8,0.1,1.3-0.1,1.7-0.2c0,0,0,0,0.1,0c0,0,0.1,0,0.1,0c0.1,0,0.1-0.1,0.2-0.1
					c0,0,0,0,0.1,0c1.2-0.6,1.7-1.6,2-2.1c-0.2,0-0.7-0.2-0.8-0.4c0.4,0,0.7,0.2,1.2,0.2c0.6,0,1-0.3,1.7-0.3c0,0,0.1,0.3,0.5,0.5
					c0,0.4,0,0.7,0.2,1c0,0.1,0.1,0.1,0.1,0.1s-0.5,0.4-0.4,0.7c0,0.1,0.1,0.2,0.1,0.3c0,0-0.1,0-0.1,0c-0.1,0-0.2,0.1-0.3,0.3
					c-0.1,0.1-0.3,0.7-0.1,0.7c0,0,0.1,0,0.1,0c-0.1,0.6-0.1,1.4,0.4,2.1l0,0c0,0,0.8,1.3,2.8,1.3h0c0.2,0,2,0,2.6,1.2
					c0,0.1,0.2,0.3,0.3,0.3c0.2,0,0.3-0.2,0.3-0.3c0.6-1.2,2.4-1.2,2.6-1.2h0c2,0,2.8-1.2,2.8-1.3l0,0c0.2-0.4,0.4-0.7,0.4-1.1
					c0.4-0.2,0.4-1.1,0.4-1.3c0.1,0.2,0.3,0.6,0.8,0.7c-0.1,0.4-0.1,1.1,0.4,1.2c0.1,0,0.3-0.2,0.2-0.3c0.4,1.1,0.1,1.8,0.4,1.9
					c0.4,0,0.4-0.7,0.4-0.7c0,0.1,0.2,0.3,0.2,0.6c0,0.3,0,0.7,0.1,0.7c0.5,0.1,0.3-1.4,0.7-1.3c-0.1,0.7,0,1.1,0.3,1.2
					c0,0.3,0,0.6-0.2,0.6c-0.7,0.2-1.4-0.4-2.1-0.2c0,0-0.1,0-0.1,0c-1.2-0.6-2-0.2-2-0.2c-0.3-0.3-0.5,0.2-0.6,0.1
					c-0.6-0.4-1,0.2-1.1,0.3c-0.1,0-0.4-0.3-0.7,0.4c-0.1,0.3-0.8,0.4-0.9,0.5c-0.3,0-0.3-0.2-0.3-0.2c0-0.1-0.1-0.1-0.1-0.2
					c0-0.1-0.1-0.1-0.1-0.1c-0.1-0.1-0.2-0.1-0.3-0.1c-0.2,0-0.4,0.2-0.4,0.4c0,0.1,0,0.2,0.1,0.2c0,0,0.1-0.1,0.2-0.1
					c0.2,0,0.3,0.1,0.3,0.3c0,0,0,0,0,0c0,0.3-0.5,0.6-0.5,0.6c-0.3,0.3-0.6-0.1-0.6-0.1c-0.2-0.2-0.3-0.2-0.3-0.2
					c-0.2,0-0.3,0.2-0.3,0.2s-0.1-0.2-0.3-0.2c0,0-0.1,0-0.3,0.2c0,0-0.4,0.4-0.6,0.1c0,0-0.5-0.3-0.5-0.6c0,0,0,0,0,0
					c0-0.2,0.1-0.3,0.3-0.3c0.1,0,0.2,0.1,0.2,0.1c0-0.1,0.1-0.2,0.1-0.2c0-0.2-0.2-0.4-0.4-0.4c-0.1,0-0.2,0-0.3,0.1
					c0,0-0.1,0.1-0.1,0.1c0,0.1-0.1,0.1-0.1,0.2c0,0-0.1,0.2-0.3,0.2c-0.1,0-0.8-0.1-0.9-0.5c-0.3-0.7-0.6-0.4-0.7-0.4
					c-0.2,0-0.5-0.6-1.1-0.3c-0.1,0.1-0.2-0.4-0.6-0.1c-0.1,0.1-0.7-0.3-1.6,0c-0.1-0.1-0.4-0.2-0.4-0.2c-0.2-0.1-0.4-0.2-0.5-0.3
					c-0.3-0.1-0.7,0-1-0.1c-0.1,0-0.3-0.1-0.4-0.1c-0.4-0.2-0.9-0.5-1.1-0.9c0-0.1-0.1-0.2-0.2-0.2c-0.1-0.2-0.2-0.3-0.3-0.5
					c-0.1-0.5,0.1-1,0.1-1.5c0-0.2,0-0.3,0.1-0.5c-0.4,0.1-0.9,0.1-1.5-0.1c0.2,0.5,0.2,1.1,0.1,1.5c0.2,0.2,0.4,0.5,0.4,0.6
					c0,0.2-0.1,0.5,0.1,0.7c0.2,0.3,0.7,0.6,1,0.8c0.1,0.1,1.4,1.1,1.6,1.1c0.2,0,0.3-0.1,0.5-0.1c0.1,0,0.1,0.1,0.1,0.1
					c0,0,0.1,0.1,0.3,0.2c-0.4,0.3-0.9,0.6-1.3,0.7c0,0-0.6,0.3-0.3,0.3c0,0,0.4,0,0.5,0.1c0,0-0.2,0.1-0.5,0.2
					c0.6,0.2,1.3,0.4,2,0.6c0.4-0.4,1-0.9,1.5-1.1c0,0,0.8,0,1-0.5c0.1-0.2,0.4,0.3,1.1,0c0.1,0,0.2,0.1,0.4,0.2
					c0.1,0-0.3,0.1-0.2,0.4c0,0-0.5,0-0.7,0.3c-0.1,0.1-1.2,0.1-2.3,0.9c0.2,0,0.4,0.1,0.6,0.1c0.3-0.3,0.8-0.4,1.3-0.4
					c0,0,0.6,0,0.9,0.8c0.4,0.1,0.8,0.1,1.2,0.1c0,0,0,0,0,0c0.1,0,0.7-0.3,0.4-0.7c0,0-0.1-0.2-0.4,0.1c0,0-0.1,0.1-0.2-0.1
					c0,0,0-0.1-0.1-0.2c0,0-0.1-0.2,0.1-0.1c0,0,0.2,0.1,0.4,0c0.2,0,0.4-0.2,0.4-0.4c0-0.2-0.1-0.4-0.4-0.4c0,0,0,0,0,0
					c0,0,0.1,0.1,0.1,0.1c0,0.1-0.1,0.2-0.1,0.1c-0.2-0.1-0.2-0.5,0.1-0.5c0,0,0.3,0,0.5,0.3c0,0,0.5,0.8,1,1c0,0-0.1,0.3,0.2,0.4
					c0,0,0,0.2,0.3,0.2c0,0,0.1,0.1,0.1,0.3c0.3,0,0.6,0,0.8,0c0.3,0,0.6,0,0.8,0c0.1-0.2,0.1-0.3,0.1-0.3c0.3,0,0.3-0.2,0.3-0.2
					C34.1,36.3,34,36,34,36c0.5-0.2,1-1,1-1c0.2-0.3,0.5-0.3,0.5-0.3c0.3,0,0.4,0.5,0.2,0.5c-0.1,0-0.1-0.1-0.1-0.1
					c0,0,0-0.1,0.1-0.1c0,0,0,0,0,0c-0.2,0-0.4,0.2-0.4,0.4c0,0.2,0.2,0.4,0.4,0.4c0.2,0,0.4,0,0.4,0c0.2-0.1,0.1,0.1,0.1,0.1
					C36,35.9,36,36,36,36c-0.1,0.2-0.2,0.1-0.2,0.1c-0.2-0.2-0.4-0.1-0.4-0.1c-0.3,0.3,0.3,0.6,0.4,0.7c0,0,0,0,0,0
					c0.4,0,0.8-0.1,1.2-0.1c0.3-0.8,0.9-0.8,0.9-0.8c0.5,0,0.9,0.2,1.3,0.4c0.2,0,0.4-0.1,0.6-0.1c-1-0.9-2.2-0.9-2.3-0.9
					c-0.2-0.3-0.7-0.3-0.7-0.3c0.1-0.3-0.3-0.3-0.2-0.4c0.2-0.1,0.3-0.2,0.4-0.2c0.7,0.4,1-0.1,1.1,0c0.2,0.6,1,0.5,1,0.5
					c0.5,0.2,1.1,0.6,1.5,1.1c0.6-0.2,1.2-0.4,1.8-0.6c0,0,0,0,0,0c0,0,0-0.1,0-0.1c0,0,0,0,0,0c0,0,0,0,0,0c0-0.1-0.1-0.1-0.1-0.2
					h0c-0.2-0.3-0.4-0.5-0.5-0.6c0,0,0,0,0,0c0,0,0,0,0,0c0,0,0.4-0.7,0.7-0.2c0,0.1,0,0.2-0.3,0.2c0,0,0.3,0.5,0.4,0.8c0,0,0,0,0,0
					c0.1-0.1,0.2-0.1,0.3-0.1c0,0,0.1,0,0.1,0c-0.2-0.3-0.4-0.5-0.4-0.6c0.1,0,0.3,0.1,0.4-0.1c0-0.1,0.1-0.3,0.1-0.6
					c0.2,0.1,0.4,0.1,0.4,0.1c0.5,0,0.6-0.7,0.5-0.9c0.1,0,0.3-0.3,0.4-0.2c0.1,0.3,0.9,0.7,0.8-0.1c0.1,0.4,0.2,0.8,0.6,0.7
					c0.3-0.1,0.1-0.6,0.2-0.6c0.1,0.1,0.2,0.7,0.7,0.6c0.1-0.1,0.2-0.1,0.2-0.3c0-0.6-1.6-3.5-1.7-4.7c0,0,0,0-0.1,0
					c-0.2-0.1-0.2-0.3-0.1-0.5c0,0,0,0,0,0c-0.2,0-0.5-0.2-0.5-0.7c0-0.5,0.2-0.7,0.3-0.7c0,0,0,0,0,0c-0.1,0.4-0.2,0.8,0.1,1.1
					c0.1,0,0.2,0.1,0.3,0.1c0.1-0.2,0.2-0.2,0.2-0.2c0,0,0,0,0,0c-0.2,0.3-0.1,0.6,0,0.8c0.1,0.1,0.2,0.1,0.3,0.1
					c0.4-0.2,0.7-1,0.8-1.3c0.3,0.1-0.5,1.8,0.1,2.1c0.2,0,0.4-0.3,0.5-0.6c0.2,0.5-0.6,1.6,0,1.8c0.4,0.1,0.5-0.8,0.5-0.7
					c0.1,1.4-0.6,2.1-0.2,2.3c0.4,0.2,0.5-1,0.5-0.8c0,1.5-0.8,1.9-0.5,2.2c0.4,0.2,0.6-0.8,0.6-0.5c0,1.4-0.7,1.7-0.4,2.1
					c0.3,0.5,1-0.9,1-0.6c0,0.3-0.7,1.9-0.3,2c0.4,0.1,0.5-0.4,0.5-0.6C49.9,31.9,50,28.1,49.9,26.8z M38.3,19.7
					C38.3,19.7,38.2,19.7,38.3,19.7c-0.4-0.1-1-0.1-1.4,0.1c-0.3,0.2-0.5,0.5-0.6,0.5c-0.1,0,0.5-0.8,1.4-0.9
					C38.3,19.3,38.3,19.6,38.3,19.7z M40.3,22.2c-0.1,0.2-0.3,0.5-0.6,0.6c-0.5,0.1-1-0.3-1.1-0.4c0-0.1,0.4,0.2,0.9,0.2
					C39.8,22.5,40.1,22.3,40.3,22.2C40.3,22.1,40.3,22.2,40.3,22.2z M18.3,36.4L18.3,36.4C18.3,36.4,18.3,36.4,18.3,36.4L18.3,36.4
					C18.3,36.4,18.3,36.4,18.3,36.4c0.1,0.1,0.2,0.1,0.2,0.2c0,0,0,0,0.1,0.1c0,0.1-0.1,0.1-0.2,0h0c0,0,0,0,0,0
					c-0.1,0-0.2-0.1-0.3-0.1c-0.1,0.1,0.1,0.3,0.2,0.4c0,0-0.1,0.1-0.1,0.1c0,0,0,0,0,0c-0.1,0-0.1,0-0.2,0h0c0,0,0,0,0,0
					c-0.2-0.1-0.2-0.3-0.2-0.4c0-0.1-0.1-0.3-0.3-0.4C17.8,35.8,18.2,36.3,18.3,36.4z M21.1,19.5c0.5,0.2,0.5-0.4,0.6-0.3
					C21.8,19.5,21.4,19.9,21.1,19.5z M21.7,19c-0.2,0-0.3-0.1-0.5,0c0,0-0.3,0.2-0.2,0.4c0,0.2-0.2,0.2-0.3,0.1
					c-0.2-0.4,0.4-0.9,0.6-1c0.3-0.1,0.6,0.1,1,0.1c0.2,0,0.5,0,0.6,0c0.4,0,0.3,0.3,0.2,0.4c-0.3,0.1-0.5-0.2-0.8-0.2
					C22.1,18.9,21.9,19,21.7,19z M23.2,21.4c-0.5-0.2-1.1-0.3-1.3-0.7c0.7,0.1,1.4,0.1,1.9,0.3c0,0,0,0,0.1,0
					c0.1,0.1,0.5,0.4,0.7,0.9C23.9,21.7,23.7,21.6,23.2,21.4z M26.9,25.7c-0.1,0-0.2-0.6-0.9-0.4c-0.4,0.2-0.7,0.1-1,0
					C26.1,24.6,27,25.2,26.9,25.7z M37.9,27.3c0,0,0.1,0,0.2,0c0,0,0,0,0,0c0.1,0,0.1,0,0.2,0c0,0,0.1,0.2,0.2,0.4l0,0l0,0
					c0,0,0.1,0.3,0.2,0.4c0.1,0.1,0.1,0.3-0.2,0.3c0,0,0,0,0,0c-0.3,0-0.6-0.5-0.4-0.9c-0.1,0-0.1,0-0.2,0l0,0c0,0,0,0,0,0
					c0,0-0.1,0-0.1,0c0,0,0,0,0,0c0,0,0,0,0,0c0,0,0,0,0,0c-0.1,0.1-0.1,0.1-0.2,0.2c0-0.2,0.1-0.3,0.2-0.4c0,0,0,0,0,0
					C37.7,27.3,37.8,27.3,37.9,27.3z M27.1,28.7C27.1,28.7,27.1,28.8,27.1,28.7c0,0.1-0.1,0.1-0.1,0.2c0,0,0,0,0,0c0,0,0,0,0,0.1
					c0,0,0,0,0,0c0,0,0,0.1-0.1,0.1c0,0,0,0,0,0c0,0,0,0-0.1,0.1c0,0,0,0,0,0c0,0-0.1,0-0.1,0.1c0,0,0,0,0,0c0,0-0.1,0-0.1,0
					c0,0,0,0,0,0c0,0-0.1,0-0.1,0c0,0,0-0.1,0-0.1c0,0,0,0,0,0c0-0.1,0.1-0.2,0.2-0.3c0.1-0.1,0-0.2,0.1-0.3c0.1,0,0.2,0,0.2-0.1
					c-0.2-0.1-0.2-0.4,0-0.7c0.3-0.3,0-1,0.1-1.1c0.1,0.1,0.2,0.3,0.2,0.6c0,0,0,0,0,0.1c0,0,0,0.1,0,0.1c0,0,0,0.1,0,0.1
					c0,0,0,0,0,0.1c0,0,0,0,0,0.1c0,0,0,0.1,0,0.1c0,0,0,0,0,0.1c0,0,0,0.1,0,0.1c0,0,0,0,0,0.1c0,0,0,0.1,0,0.1c0,0,0,0,0,0.1
					c0,0,0,0.1,0,0.1c0,0,0,0,0,0.1c0,0,0,0,0,0.1c0,0,0,0.1,0,0.1C27.1,28.6,27.1,28.6,27.1,28.7C27.1,28.7,27.1,28.7,27.1,28.7z
					 M37.4,31.1c-0.1,0.1-0.7,1.2-2.5,1.2c-0.2,0-1.6,0-2,0.9c0,0,0,0,0,0c-0.1,0.1-0.2,0.4-0.3,0.5c0,0,0,0-0.1,0c0,0-0.1,0-0.1,0
					c-0.1-0.2-0.3-0.4-0.3-0.5c0,0,0,0,0,0c-0.5-0.9-1.9-0.9-2-0.9c-1.8,0-2.4-1-2.5-1.2c-0.9-1.3-0.1-2.7,0-2.7
					c0.7-1.2,0.6-2.1,0.6-2.3c0-1.4-0.9-2.4-1-2.5C27,23.4,27,23.3,27,23.3c0-0.1,0.1-0.2,0.1-0.2c0.2-0.1,0.6-0.4,0.8-0.5l0.1-0.1
					c0,0,0,0,0.1,0c0.1,0,0.1,0,0.2,0.1c0.2,0.1,0.5,0.4,1,0.4c0.1,0,0.2,0,0.3,0c0.3,0,0.8-0.3,0.8-0.3c0.1-0.1,0.3-0.2,0.4-0.2
					l0,0c0.8-0.3,1.4-0.3,1.6-0.3c0.2,0,0.8,0,1.6,0.3l0,0c0.1,0,0.3,0.1,0.4,0.2c0,0,0.5,0.2,0.8,0.3c0.1,0,0.2,0,0.3,0
					c0.6,0,0.9-0.2,1-0.4c0.1-0.1,0.1-0.1,0.2-0.1c0,0,0.1,0,0.1,0c0,0,0,0,0.1,0.1c0.2,0.1,0.6,0.4,0.8,0.5c0,0,0.1,0.1,0.1,0.2
					c0,0.1,0,0.2-0.1,0.3c-0.1,0.1-1,1.2-1,2.5c0,0.2-0.1,1,0.6,2.3C37.5,28.4,38.3,29.8,37.4,31.1z M38.7,30L38.7,30
					C38.7,30,38.6,30,38.7,30L38.7,30c-0.1,0.1-0.1,0.1-0.1,0.1c0,0,0,0,0,0c0,0,0,0,0,0c0,0,0,0,0,0c0,0,0,0-0.1,0c0,0,0,0,0,0
					c0,0,0,0,0,0c0,0,0,0,0,0c0,0,0,0,0,0c0,0,0,0,0,0c0,0,0,0,0,0c0,0,0,0,0,0c0,0,0,0-0.1,0c0,0,0,0,0,0c0,0-0.1-0.2,0.1-0.2
					c0,0,0,0.1,0.1,0.1c0,0,0,0,0,0c0,0,0,0,0,0c0,0,0,0,0,0c0,0,0,0,0,0c0,0,0,0,0,0c0,0,0,0,0,0c0,0,0,0,0,0c0,0,0,0,0,0
					c0,0,0,0,0,0c0,0,0,0,0-0.1c0,0,0,0,0,0c0,0,0,0,0-0.1c0,0,0,0,0,0c0,0,0,0,0-0.1c0-0.3,0-0.7,0.1-0.9c0,0,0,0,0,0c0,0,0,0,0,0
					c0,0,0,0,0,0h0h0c0,0,0,0,0,0c0,0,0,0,0,0c0,0,0,0,0,0c0,0,0,0,0,0c0,0,0,0,0,0c0,0,0,0,0,0c0,0,0,0,0,0.1c0,0,0,0,0,0
					c0,0.1,0,0.2,0,0.3c0,0,0,0,0,0.1l0,0c0,0.1,0,0.1,0,0.2C38.8,29.6,38.8,29.9,38.7,30z M41.9,30.6c-0.9,0.1-1.5-0.8-1.5-0.7
					c0,0,0.3,0.3,0.6,0.4c0.4,0.2,1,0.1,1.3-0.2c0,0,0,0,0.1,0C42.5,30.2,42.5,30.5,41.9,30.6z M25,33.4C25,33.4,25,33.4,25,33.4
					C25,33.4,25,33.4,25,33.4C25,33.4,25,33.4,25,33.4c-0.1,0.1-0.1,0.1-0.2,0.1c-0.1,0-0.2,0-0.3,0c0,0.1,0,0.1,0.1,0.2
					c0,0,0,0,0,0c0,0,0,0,0,0c0,0,0,0,0.1,0c0,0,0.1,0,0.1,0.1c0,0.1-0.2,0.2-0.2,0.2c-0.2,0-0.3-0.2-0.3-0.3c0,0,0,0,0,0
					c0,0,0,0,0,0c-0.1-0.1-0.4-0.1-0.6-0.1c0-0.4,1.1-0.1,1.2-0.1C24.8,33.3,24.9,33.3,25,33.4C25,33.3,25,33.3,25,33.4z M41.5,34.3
					L41.5,34.3C41.5,34.3,41.5,34.3,41.5,34.3c-0.2,0.1-0.7-0.2-0.7-0.3c-0.1,0-0.3-0.1-0.4-0.1l0,0c0,0,0,0,0,0
					c-0.2,0.1-0.3,0.3-0.4,0.3c0,0,0-0.1,0-0.1c0,0,0,0,0,0c0,0,0-0.1,0-0.1c0,0,0,0,0,0c0,0,0,0,0-0.1c0,0,0,0,0,0c0,0,0-0.1,0-0.1
					c0,0,0,0,0,0c0,0,0,0,0,0c0,0,0,0,0.1,0c0,0,0,0,0,0c0.1-0.1,0.2-0.1,0.3-0.1l0,0c0.2,0,0.3,0.1,0.5,0.2
					c0.2,0.1,0.4,0.2,0.6,0.2C41.6,34.1,41.6,34.2,41.5,34.3z M45.5,22.3c-0.1,0.1-0.4,0.3-0.6,0.3c-0.4,0.1-0.7,0-0.9-0.3
					c0.3-0.1,0.5,0.1,0.9,0.1c0.1,0,0.3,0,0.4-0.1c0.1,0,0.2-0.1,0.3-0.1C45.7,22.2,45.6,22.3,45.5,22.3z M49.1,32.6
					c-0.1,0.4-0.3,1.3-0.3,1.3c0.8-7.3,0.4-9,0.2-9c-0.1,0-0.2,0.9-0.6,0.6c-0.4-0.3,0.9-1.9,0.4-2.7c-0.1-0.1-0.2,0.2-0.4,0.1
					c-0.5-0.2,0.3-1.6,0.1-1.7c-0.1-0.1-0.5-0.2-0.5-0.7c0-0.2,0.2-0.4,0-0.6c-0.1-0.1-0.1,0.1-0.3,0.1c-0.2-0.3,0-0.6-0.1-0.8
					c-0.1-0.1-0.2,0.2-0.4,0.1c-0.1-0.1,0.1-0.4-0.1-0.4c-0.2,0-0.6,0.3-0.5,0.7c0,0.2,0.3,0.3,0.3,0.6c0,0.2-0.3,0.4-0.3,0.5
					c-0.3,0.8,0.2,0.9,0.2,1.2c0,0.1-0.3,0.2-0.4,0.1c-0.2-0.1-0.3-0.8-0.2-1.1c0.1-0.3,0.5-0.7,0.5-0.9c0-0.2-0.2-0.4-0.2-0.7
					c0-0.4,0.3-0.8,0.7-0.7c0.3,0.1,0.5,0.3,0.6,0.5c0.1,0.1,0.2,0.1,0.2,0.2c0.5,0.6,0.9,1.7,1.1,2.5
					C49.6,24.2,49.9,28.2,49.1,32.6z"/>
			</g>
		</g>
	</g>
	<g>
		<path class="st2" d="M73.3,19.9c-1.2,0.6-2.2,0.8-3.3,0.8c-2.7,0-4.1-1.9-4.1-4.8c0-2.8,1.4-4.6,4.2-4.6c1.4,0,2.3,0.3,3,0.8
			l-0.7,1.3c-0.5-0.3-1.3-0.6-2.2-0.6c-1.6,0-2.4,1.2-2.4,3c0,2.1,0.8,3.3,2.4,3.3c0.6,0,1.1-0.1,1.5-0.3v-1.7h-1.2l-0.1-1.3h3V19.9
			z"/>
		<path class="st2" d="M80.7,17.3c0,2.2-1.1,3.4-3.1,3.4c-2,0-3.1-1.2-3.1-3.4c0-1.9,1.1-3.4,3.1-3.4C79.5,13.8,80.7,15.3,80.7,17.3
			z M78.8,17.3c0-1.6-0.5-2.1-1.3-2.1c-0.8,0-1.3,0.6-1.3,2.1c0,1.5,0.4,2.2,1.3,2.2C78.4,19.4,78.8,18.8,78.8,17.3z"/>
		<path class="st2" d="M83.6,14.7c0.3-0.4,1-0.8,1.7-0.8c1.5,0,2.7,1.1,2.7,3.4c0,2.3-1.3,3.4-2.9,3.4c-0.9,0-1.5-0.4-1.9-0.9
			l-0.3,0.8H82v-9.3h1.8v2.3L83.6,14.7z M83.7,18.7c0.3,0.4,0.7,0.7,1.2,0.7c0.8,0,1.3-0.6,1.3-2.2c0-1.6-0.5-2.1-1.3-2.1
			c-0.4,0-0.9,0.2-1.2,0.5V18.7z"/>
		<path class="st2" d="M89.9,20.6v-5.3l-0.8-0.2V14h2.5v6.6H89.9z M89.8,11.3h1.8v1.6h-1.8V11.3z"/>
		<path class="st2" d="M94.7,17.7c0,1,0.6,1.6,1.7,1.6c0.7,0,1.4-0.3,1.9-0.6l0.3,1.2c-0.6,0.3-1.5,0.6-2.5,0.6
			c-2,0-3.2-1.3-3.2-3.4c0-2,1-3.4,3.1-3.4c2,0,2.8,1.5,2.8,3.1v0.8H94.7z M96,15.1c-0.9,0-1.2,0.8-1.2,1.6h2.4
			C97.2,15.9,96.9,15.1,96,15.1z"/>
		<path class="st2" d="M103.9,15.4c-0.2-0.1-0.5-0.1-0.8-0.1c-0.5,0-0.9,0.2-1.2,0.4v4.8h-1.7V14h1.2l0.2,0.9h0c0.2-0.5,0.8-1,1.6-1
			c0.4,0,0.6,0.1,0.8,0.1L103.9,15.4z"/>
		<path class="st2" d="M109.1,20.6v-3.9c0-1-0.4-1.5-1.2-1.5c-0.5,0-0.8,0.2-1.2,0.4v5H105V14h1.2l0.3,0.8c0.4-0.4,1.1-0.9,2.1-0.9
			c1.7,0,2.3,1,2.3,2.7v4.1H109.1z"/>
		<path class="st2" d="M118.2,17.3c0,2.2-1.1,3.4-3.1,3.4c-2,0-3.1-1.2-3.1-3.4c0-1.9,1.1-3.4,3.1-3.4
			C117.1,13.8,118.2,15.3,118.2,17.3z M116.4,17.3c0-1.6-0.5-2.1-1.3-2.1c-0.8,0-1.3,0.6-1.3,2.1c0,1.5,0.4,2.2,1.3,2.2
			C116,19.4,116.4,18.8,116.4,17.3z"/>
		<path class="st2" d="M70.4,25.8c-0.1-0.4-0.2-0.7-0.2-1.2v-2H72v9.3h-1.4l-0.2-0.7c-0.3,0.4-0.9,0.9-1.7,0.9
			c-1.5,0-2.7-1.1-2.7-3.4c0-2.2,1.2-3.4,2.8-3.4C69.5,25.2,70,25.4,70.4,25.8z M70.2,26.8c-0.3-0.2-0.7-0.3-1.2-0.3
			c-0.8,0-1.4,0.6-1.4,2.1c0,1.6,0.5,2.2,1.3,2.2c0.4,0,0.9-0.2,1.2-0.6V26.8z"/>
		<path class="st2" d="M75.1,29.1c0,1,0.6,1.6,1.7,1.6c0.7,0,1.4-0.3,1.9-0.6l0.3,1.2c-0.6,0.3-1.5,0.6-2.5,0.6
			c-2,0-3.2-1.3-3.2-3.4c0-2,1-3.4,3.1-3.4c2,0,2.8,1.5,2.8,3.1v0.8H75.1z M76.3,26.5c-0.9,0-1.2,0.8-1.2,1.6h2.4
			C77.5,27.2,77.2,26.5,76.3,26.5z"/>
		<path class="st2" d="M87.2,32c-2.6,0-3.9-1.7-3.9-4.7c0-2.8,1.4-4.6,3.9-4.6c1.2,0,2.4,0.3,3.1,0.8l-0.7,1.4
			c-0.5-0.4-1.3-0.6-2.2-0.6c-1.5,0-2.3,1.1-2.3,3.1c0,2.1,0.8,3.2,2.2,3.2c0.9,0,1.8-0.4,2.4-0.8l0.6,1.4
			C89.4,31.7,88.4,32,87.2,32z"/>
		<path class="st2" d="M91.5,31.9v-9.3h1.8V25c0,0.5-0.1,0.8-0.2,1c0.4-0.5,1-0.9,1.9-0.9c1.9,0,2.4,1,2.4,2.7v4.1h-1.8V28
			c0-0.9-0.4-1.5-1.2-1.5c-0.5,0-0.9,0.2-1.2,0.4v5H91.5z"/>
		<path class="st2" d="M99.4,31.9v-5.3l-0.8-0.2v-1.1h2.5v6.6H99.4z M99.3,22.6h1.8v1.6h-1.8V22.6z"/>
		<path class="st2" d="M102.7,30.1v-7.5h1.7v7.4c0,0.6,0.3,0.6,1.1,0.6v1.2c0,0-0.5,0.1-1,0.1C103.2,32,102.7,31.3,102.7,30.1z"/>
		<path class="st2" d="M108.2,29.1c0,1,0.6,1.6,1.7,1.6c0.7,0,1.4-0.3,1.9-0.6l0.3,1.2c-0.6,0.3-1.5,0.6-2.5,0.6
			c-2,0-3.2-1.3-3.2-3.4c0-2,1-3.4,3.1-3.4c2,0,2.8,1.5,2.8,3.1v0.8H108.2z M109.4,26.5c-0.9,0-1.2,0.8-1.2,1.6h2.4
			C110.6,27.2,110.3,26.5,109.4,26.5z"/>
	</g>
	<g>
		<path class="st2" d="M72,112.5h-1.9l-0.8-3.8l-1,3.8h-1.8l-1.1-5.1h1.5l0.6,4h0l1.1-4h1.6l1,4h0l0.7-4h1.3L72,112.5z"/>
		<path class="st2" d="M80,112.5h-1.9l-0.8-3.8l-1,3.8h-1.8l-1.1-5.1h1.5l0.6,4h0l1.1-4h1.6l1,4h0l0.7-4h1.3L80,112.5z"/>
		<path class="st2" d="M88,112.5h-1.9l-0.8-3.8l-1,3.8h-1.8l-1.1-5.1h1.5l0.6,4h0l1.1-4h1.6l1,4h0l0.7-4h1.3L88,112.5z"/>
		<path class="st2" d="M89.7,111h1.4v1.5h-1.4V111z"/>
		<path class="st2" d="M96.8,107.4l0,1c-0.2,0-0.6-0.1-1-0.2c0.2,0.2,0.5,0.5,0.5,0.8c0,1.2-1.2,1.7-2.1,1.7c-0.2,0-0.4,0-0.7-0.1
			c-0.2,0.1-0.2,0.1-0.2,0.3c0,0.5,3.2-0.1,3.2,1.8c0,1.2-1.1,1.8-2.4,1.8c-1.1,0-2.1-0.5-2.1-1.4c0-0.7,0.5-1,1.3-1.1
			c-0.6-0.1-1.3-0.3-1.3-0.9c0-0.4,0.4-0.7,1-0.8c-0.5-0.3-0.9-0.7-0.9-1.4c0-1.3,1.3-1.7,2.1-1.7C94.7,107.3,95.9,107.4,96.8,107.4
			z M94,112.2c-0.5,0-0.8,0.3-0.8,0.7c0,0.4,0.4,0.8,1,0.8c0.6,0,1-0.3,1-0.8C95.2,112.4,94.8,112.3,94,112.2z M95.1,109
			c0-0.6-0.5-0.8-0.9-0.8c-0.4,0-0.9,0.2-0.9,0.8c0,0.6,0.5,0.8,0.9,0.8C94.6,109.8,95.1,109.7,95.1,109z"/>
		<path class="st2" d="M102.2,110c0,1.7-0.9,2.6-2.4,2.6c-1.5,0-2.4-0.9-2.4-2.6c0-1.5,0.8-2.6,2.4-2.6
			C101.3,107.3,102.2,108.5,102.2,110z M100.8,110c0-1.2-0.4-1.6-1-1.6c-0.6,0-1,0.4-1,1.6c0,1.2,0.3,1.7,1,1.7
			C100.5,111.6,100.8,111.2,100.8,110z"/>
		<path class="st2" d="M104.5,108c0.2-0.3,0.8-0.6,1.3-0.6c1.2,0,2,0.8,2,2.6c0,1.7-1,2.6-2.2,2.6c-0.7,0-1.1-0.3-1.5-0.7l-0.2,0.6
			h-0.7v-7.1h1.4v1.8L104.5,108z M104.5,111.1c0.2,0.3,0.6,0.5,0.9,0.5c0.6,0,1-0.4,1-1.7c0-1.2-0.4-1.6-1-1.6
			c-0.3,0-0.7,0.2-0.9,0.4V111.1z"/>
		<path class="st2" d="M108.7,111h1.4v1.5h-1.4V111z"/>
		<path class="st2" d="M115.2,112.2c-0.3,0.2-1,0.4-1.7,0.4c-1.5,0-2.4-0.9-2.4-2.6c0-1.7,0.9-2.6,2.4-2.6c0.7,0,1.3,0.1,1.7,0.4
			l-0.4,0.9c-0.4-0.2-0.8-0.3-1.3-0.3c-0.7,0-1.1,0.5-1.1,1.6c0,1.1,0.4,1.6,1.2,1.6c0.5,0,1-0.2,1.4-0.4L115.2,112.2z"/>
		<path class="st2" d="M116.1,111.2v-5.8h1.3v5.7c0,0.4,0.3,0.5,0.8,0.5v1c0,0-0.4,0.1-0.7,0.1C116.5,112.6,116.1,112.1,116.1,111.2
			z"/>
	</g>
</g>
</svg>
