<?xml version="1.0" encoding="utf-8"?>
<!-- Generator: Adobe Illustrator 21.1.0, SVG Export Plug-In . SVG Version: 6.00 Build 0)  -->
<svg version="1.1" id="Capa_1" xmlns="http://www.w3.org/2000/svg" xmlns:xlink="http://www.w3.org/1999/xlink" x="0px" y="0px"
	 viewBox="0 0 520 243" style="enable-background:new 0 0 520 243;" xml:space="preserve">
<style type="text/css">
	.st0{fill:#1F247C;}
	.st1{opacity:0.74;fill:#F7931E;}
</style>
<path class="st0" d="M39.3,40.4c-3.9,0-7.1,3.2-7.1,7.1v155.4c0,3.9,3.2,7.1,7.1,7.1h437.2c3.9,0,7.1-3.2,7.1-7.1V47.5
	c0-3.9-3.2-7.1-7.1-7.1H39.3z"/>
<path class="st1" d="M476.5,230H39.3c-14.9,0-27.1-12.1-27.1-27.1V47.5c0-14.9,12.1-27.1,27.1-27.1h437.2
	c14.9,0,27.1,12.1,27.1,27.1v155.4C503.6,217.8,491.5,230,476.5,230z M39.3,40.4c-3.9,0-7.1,3.2-7.1,7.1v155.4
	c0,3.9,3.2,7.1,7.1,7.1h437.2c3.9,0,7.1-3.2,7.1-7.1V47.5c0-3.9-3.2-7.1-7.1-7.1H39.3z"/>
</svg>
