<?xml version="1.0" encoding="utf-8"?>
<!-- Generator: Adobe Illustrator 21.1.0, SVG Export Plug-In . SVG Version: 6.00 Build 0)  -->
<svg version="1.1" id="Capa_1" xmlns="http://www.w3.org/2000/svg" xmlns:xlink="http://www.w3.org/1999/xlink" x="0px" y="0px"
	 viewBox="0 0 574 768" style="enable-background:new 0 0 574 768;" xml:space="preserve">
<style type="text/css">
	.st0{fill:#51CAC0;}
</style>
<path class="st0" d="M529.2,415.1v178.3c0,67.4-59.2,122.3-132,122.3s-132-54.9-132-122.3V478h206.1c19.8,0,35.9-16.1,35.9-35.9
	v-384c0-19.8-16.1-35.9-35.9-35.9H51.7c-19.8,0-35.9,16.1-35.9,35.9v384c0,19.8,16.1,35.9,35.9,35.9h183.5v115.5
	c0,84,72.7,152.3,162,152.3s162-68.3,162-152.3V415.1H529.2z M35.8,442.1v-384c0-8.7,7.1-15.9,15.9-15.9h419.6
	c8.7,0,15.9,7.1,15.9,15.9v384c0,8.7-7.1,15.9-15.9,15.9H51.7C43,458,35.8,450.9,35.8,442.1z"/>
</svg>
