<?xml version="1.0" encoding="utf-8"?>
<!-- Generator: Adobe Illustrator 21.1.0, SVG Export Plug-In . SVG Version: 6.00 Build 0)  -->
<svg version="1.1" id="Capa_1" xmlns="http://www.w3.org/2000/svg" xmlns:xlink="http://www.w3.org/1999/xlink" x="0px" y="0px"
	 viewBox="0 0 1366 768" style="enable-background:new 0 0 1366 768;" xml:space="preserve">
<style type="text/css">
	.st0{fill:none;stroke:#F7931E;stroke-width:30;stroke-miterlimit:10;}
</style>
<path class="st0" d="M23.8,560.2V393.4C23.8,188.2,201.9,22,421.5,22h0c219.6,0,397.6,166.3,397.6,371.4V519l0,0l0.1,36.3
	c0,82.5,71.6,149.4,160,149.4h0c88.4,0,160-66.9,160-149.4V415.7"/>
</svg>
