,Partida,Periodo,Descripcion,Partida_Bonita,Unnamed: 0,Gasto,Gasto_Bonito,Nombre Partida,Logo,Misión ,Link
3,Congreso Nacional,2012,"Institución que representa al Poder Legislativo. Está encargada de discutir y crear leyes, a través de la Cámara de Diputados y la Cámara de Senadores.",Congreso Nacional,237125,117128082,$117.128.082,Congreso Nacional,https://www.datacampfire.com/wp-content/uploads/2018/04/Logo-Congreso.png,,http://www.congreso.cl/
12,Contraloría General,2012,"Institución independiente del resto de Poderes que se encarga de fiscalizar al Estado. Se enfoca en ver que todo lo que haga el Estado sea legal, sobre todo en temas del uso del dinero público.",Contraloría General De La República,236852,72009298,$72.009.298,Contraloría General De La República,https://www.contraloria.cl/portalweb/CGR-home-theme/img/logo.svg,https://www.contraloria.cl/web/cgr/que-hacemos,https://www.contraloria.cl/portalweb/web/cgr/portada
21,M. De Agricultura,2012,"Ministerio dedicado a gestionar la agricultura del país, de forma de aumentar la producción agricultora. Además, promueve el mejoramiento de la nutrición de las personas.",Ministerio De Agricultura,8369150,424798472,$424.798.472,Ministerio De Agricultura,https://www.minagri.gob.cl/wp-content/uploads/2016/08/logo-minagri-1.png,https://www.minagri.gob.cl/quienes-somos/,https://www.minagri.gob.cl/
30,M. De Bienes Nacionales,2012,"Ministerio que se encarga de manejar y administrar todo lo que es patrimonio del Estado. Entre otras cosas, se encargan de comprar y vender terrenos o autos, además de ver cómo se van a utilizar.",Ministerio De Bienes Nacionales,1279642,24517655,$24.517.655,Ministerio De Bienes Nacionales,http://www.bienesnacionales.cl/wp-content/uploads/2015/03/logo_bbnn.jpg,http://www.bienesnacionales.cl/?page_id=1565,http://www.bienesnacionales.cl/
39,M. De Defensa Nacional,2012,"Ministerio dedicado a garantizar la seguridad exterior de Chile, es decir, dedicado a la Defensa ante cualquier ataque extranjero",Ministerio De Defensa Nacional,26699897,1577526111,$1.577.526.111,Ministerio De Defensa Nacional,http://www.defensa.cl/media/logo-mindef.png,https://www.defensa.gob.ec/valoresmisionvision/,http://www.defensa.cl/
48,M. De Desarrollo Social,2012,Ministerio dedicado a diseñar y aplicar políticas que buscan eliminar la pobreza y ayudar a personas que vienen de grupos más vulnerables para que logren integrarse en la sociedad.,Ministerio De Desarrollo Social,17602519,417217608,$417.217.608,Ministerio De Desarrollo Social,http://www.ministeriodesarrollosocial.gob.cl/img/logo-main.jpg,http://www.ministeriodesarrollosocial.gob.cl/mision,http://www.ministeriodesarrollosocial.gob.cl/
57,"M. De Economía, Fomento Y Turismo",2012,"Ministerio dedicado a modernizar y hacer más competitiva (disminuir los costos) a la estructura productiva del país, es decir, cualquier empresa que se dedique a la producción de bienes (productos). Esto, con la idea de impulsar el crecimiento económico del país a través de políticas públicas","Ministerio De Economía, Fomento Y Turismo",42596513,395883167,$395.883.167,"Ministerio De Economía, Fomento Y Turismo",http://www.economia.cl/wp-content/uploads/2015/02/logo-pagina-web3.png,http://www.economia.gob.cl/mision-e-historia,http://www.economia.gob.cl/
66,M. De Educación,2012,"Ministerio dedicado a fomentar que las personas de todas las edades se eduquen, con la mejor calidad posible. También protegen derechos de los estudiantes. Coordina todas las políticas que buscan lograr una educación inclusiva y de calidad, desde educación parvularia, hasta educación superior.",Ministerio De Educación,63055414,6240881135,$6.240.881.135,Ministerio De Educación,http://staticv2.mineduc.cl/img/logo-med.png,https://www.mineduc.cl/ministerio/mision/,https://www.mineduc.cl/
74,M. De Energía,2012,Ministerio encargado de armar y coordinar las políticas que permiten desarrollarse al sector energético. Impulsan políticas como las enfocadas en fomentar el uso de energías renovables como la eólica o solar.,Ministerio De Energía,53564340,44051688,$44.051.688,Ministerio De Energía,http://www.energia.gob.cl/sites/all/themes/portal_energia_gob_cl/logo.png,http://www.energia.gob.cl/sobre-el-ministerio/ministerio,http://www.energia.gob.cl/
83,M. De Hacienda,2012,"Ministerio dedicado a manejar los recursos del Estado, de la mejor manera posible, al servicio de los ciudadanos. Entre otras cosas, busca aumentar la recaudación pública, busca planes que puedan llevar a un crecimiento sustentable, trata de modernizar el Estado, coordina la firma de Tratados de Libre Comercio, etc.",Ministerio De Hacienda,58106063,423206380,$423.206.380,Ministerio De Hacienda,http://www.hacienda.cl/images/frontend/header/logo_es.gif,http://www.hacienda.cl/el-ministerio.html,http://www.hacienda.cl/
92,M. De Justicia Y Derechos Humanos,2012,"Ministerio que busca modernizar el sistema de justicia, para esto busca políticas que hagan más fácil la protección de los derechos de las personas, la seguridad ciudadana y la reinserción social",Ministerio De Justicia Y Derechos Humanos,50466636,913587106,$913.587.106,Ministerio De Justicia Y Derechos Humanos,http://www.minjusticia.gob.cl/media/2018/04/isologo_minjuddhh2018.png,http://www.minjusticia.gob.cl/mision/,http://www.minjusticia.gob.cl/
103,M. De Minería,2012,"Ministerio enfocado a aumentar la importancia y producción de la minería en el desarrollo del país. Se encargan, por ejemplo, de coordinar las políticas sobre la extracción de cobre o litio.",Ministerio De Minería,28052160,45525819,$45.525.819,Ministerio De Minería,http://subinterior.gob.cl/media/2014/07/Logo-web.jpg,http://www.minmineria.gob.cl/mision-institucional/,http://www.minmineria.gob.cl/
112,M. De Obras Públicas,2012,"Ministerio dedicado a la infraestructura del país, además de encargarse de cuidar y usar bien los recursos hídricos (ríos, lagos, glaciares). Participa en proyectos como la construcción edificios públicos, puentes, carreteras, etc. En temas de recursos hídricos, se encarga de hacer planes para enfrentar la escasez de agua, mejorar las reglas para su uso y también la forma en que se usa, entre otros.",Ministerio De Obras Públicas,78640903,1975406376,$1.975.406.376,Ministerio De Obras Públicas,http://especiales.mop.gov.cl/common/images/Logo_mop.jpg,http://www.mop.cl/acercadelmop/Paginas/ValoresMisionyVision.aspx,http://www.mop.cl/Paginas/default.aspx
121,M. De Relaciones Exteriores,2012,"Ministerio enfocado en la políticas chilenas ligadas a otros países, como por ejemplo, construir relaciones de paz y cooperación con países vecinos, contribuir a mantener el territorio chileno, defender derechos de chilenos en el extranjero, entre otros.",Ministerio De Relaciones Exteriores,33785303,186199679,$186.199.679,Ministerio De Relaciones Exteriores,https://minrel.gob.cl/minrel/site/artic/20151130/imag/foto_0000000120151130111747.jpg,https://minrel.gob.cl/mision-objetivos-y-valores-del-ministerio-de-relaciones-exteriores/minrel/2016-10-14/133122.html,https://minrel.gob.cl/
130,M. De Salud,2012,"Ministerio que busca asegurar la buena salud de los chilenos. Para esto, trabaja mejorando la red nacional de atención en hospitales, crea políticas públicas relacionadas a la salud, entre otras.",Ministerio De Salud,339284300,5364384397,$5.364.384.397,Ministerio De Salud,http://web.minsal.cl/wp-content/uploads/2017/03/logo-180x180-1.png,http://www.minsal.cl/mision-y-vision/,http://www.minsal.cl/
139,M. De Transportes Y Telecom.,2012,"Ministerio dedicado a políticas enfocadas a empresas de transportes y de comunicaciones, además supervisa que estas empresas se estén comportando de manera correcta, acorde con la ley. Entre otras cosas, el ministerio se relaciona con Transantiago, Metro, compañías de celulares, de internet, etc",Ministerio De Transportes Y Telecomunicaciones,60549985,736349089,$736.349.089,Ministerio De Transportes Y Telecomunicaciones,http://www.pragma.cl/images/clientes/gobierno/Ministerio-Transporte.jpg,http://www.pragma.cl/images/clientes/gobierno/Ministerio-Transporte.jpg,http://www.mtt.gob.cl/
148,M. De Vivienda Y Urbanismo,2012,"Ministerio que busca que las personas puedan acceder a viviendas de calidad y a desarrollar barrios, de manera que sean equitativos, integrados y sustentables. Todo esto con el objetivo de que los ciudadanos mejoren su calidad de vida y bienestar.",Ministerio De Vivienda Y Urbanismo,164640793,1850333232,$1.850.333.232,Ministerio De Vivienda Y Urbanismo,http://www.minvu.cl/rps_minvu_v56/OpenSite/Minvu/Inicio-Home/logo_31214332580698722.jpg,http://www.minvu.cl/opensite_20061113164619.aspx,http://www.minvu.cl/
161,M. Del Interior Y Seguridad Pública,2012,"Ministerio que busca mantener el orden público, la seguridad y la paz social. Para esto, promueve políticas para el desarrollo de las regiones, propone políticas de migración, fiscaliza que se cumplan normas legales, entre otras.",Ministerio Del Interior Y Seguridad Pública,424230444,2609761835,$2.609.761.835,Ministerio Del Interior Y Seguridad Pública,http://www.interior.gob.cl/media/2017/05/home-logo-main.png,http://www.interior.gob.cl/funciones-ministeriales/,http://www.interior.gob.cl/
169,M. Del Medio Ambiente,2012,Ministerio encargado de armar y coordinar las políticas que permiten desarrollarse al sector energético. Impulsan políticas como las enfocadas en fomentar el uso de energías renovables como la eólica o solar.,Ministerio Del Medio Ambiente,41023289,38171520,$38.171.520,Ministerio Del Medio Ambiente,http://portal.mma.gob.cl/wp-content/uploads/2018/05/logo-mma-normal.png,http://portal.mma.gob.cl/estructura/,http://portal.mma.gob.cl/
178,M. Del Trabajo Y Previsión Social,2012,"Ministerio que se dedica a impulsar políticas públicas para los trabajadores: calidad del trabajo, capacitación, seguridad y salud laboral, derechos, entres otros.",Ministerio Del Trabajo Y Previsión Social,148290003,6077656862,$6.077.656.862,Ministerio Del Trabajo Y Previsión Social,http://www.mintrab.gob.cl/wp-content/uploads/2014/12/logo_mintrab.png,http://www.mintrab.gob.cl/nuestro-ministerio/mision-y-objetivos/,http://www.mintrab.gob.cl/
187,M. Público,2012,"También conocido como Fiscalía de Chile es una Institución independiente de los Poderes, que se dedica a hacer investigaciones penales, propone soluciones a los conflictos penales y tiene presente los intereses de la sociedad y las víctimas.",Ministerio Público,14035383,136975841,$136.975.841,Ministerio Público,http://www.fiscaliadechile.cl/Fiscalia/images/logo.gif,http://www.fiscaliadechile.cl/Fiscalia/quienes/misionvision.jsp,http://www.fiscaliadechile.cl/Fiscalia/index.do
196,M. Sec. Gral. De Gobierno,2012,"Ministerio encargado de asesorar comunicacionalmente a las autoridades del gobierno, haciendo más fácil la comunicación entre los gobernantes y la ciudadanía. Su trabajo incluye medios digitales, como las redes sociales.",Ministerio Secretaría General De Gobierno,48616725,162525051,$162.525.051,Ministerio Secretaría General De Gobierno,http://www.msgg.gob.cl/wp/wp-content/uploads/2017/03/logo-main-1.png,http://www.msgg.gob.cl/wp/index.php/que-hacemos/,http://www.msgg.gob.cl/wp/
205,M. Sec. Gral. De La Presidencia,2012,"Ministerio encargado de ayudar al gobierno, facilitando que se cumpla  agenda (programa y leyes). Entre otras cosas, asesoran al Presidente, hacen estudios y análisis para la toma de decisiones y apoyan constantemente",Ministerio Secretaría General De La Presidencia De La República,17761423,8901625,$8.901.625,Ministerio Secretaría General De La Presidencia De La República,https://upload.wikimedia.org/wikipedia/commons/thumb/0/0b/Segpres.png/200px-Segpres.png,http://www.minsegpres.gob.cl/mision/,http://www.minsegpres.gob.cl/
214,Poder Judicial,2012,"Institución que representa el tercer poder además del Ejecutivo y Legislativo. Incorpora los distintos tribunales: civil, penal, laboral y familiar. Busca darle a las personas justicia de calidad y rápida.",Poder Judicial,29388255,418123198,$418.123.198,Poder Judicial,http://www.pjud.cl/image/company_logo?img_id=11106&t=1527933900517,http://www.pjud.cl/informacion-institucional,http://www.pjud.cl/
223,Presidencia De La República,2012,"Este es el Poder Ejecutivo, es quien representa los intereses del país, nacional e internacionalmente y además dirige la política de gobierno, con respaldo de la mayoría que votó por este.",Presidencia De La República,14189418,17579799,$17.579.799,Presidencia De La República,https://escribenos.presidencia.cl/Images/logo-gobierno.jpg,,https://www.gob.cl/
233,Tesoro Público,2012,"Son el Servicio Público encargado de recaudar los impuestos, además de vigilar y proteger ese dinero. Además, se encarga de entregar ese dinero a los distintos Organismos del Estado (otros Ministerios, Congreso, etc)",Tesoro Público,9669165,1899826693,$1.899.826.693,Tesoro Público,http://www.tesoreria.cl/web/Contenido/ImagenesSitio/logos/logo_teso1.png,http://www.tesoreria.cl/web/quienesSomos/QuienesSomosController.jpf,http://www.tesoreria.cl/web/index.jsp
