<?xml version="1.0" encoding="utf-8"?>
<!-- Generator: Adobe Illustrator 21.1.0, SVG Export Plug-In . SVG Version: 6.00 Build 0)  -->
<svg version="1.1" id="Capa_1" xmlns="http://www.w3.org/2000/svg" xmlns:xlink="http://www.w3.org/1999/xlink" x="0px" y="0px"
	 viewBox="0 0 448.7 247.7" style="enable-background:new 0 0 448.7 247.7;" xml:space="preserve">
<style type="text/css">
	.st0{fill:none;stroke:#4D4D4D;stroke-width:2;stroke-miterlimit:10;}
</style>
<g>
	<path class="st0" d="M166,20.9v16h-0.7v10.4h1v5.3l-1.3,1.3v17.1l1.3,1.3v3.9l-1,1v16l1.1,2v131.9c0,14.6,14,16.3,14,16.3
		s60.1,0,81.9,0s20.6-15.8,20.6-15.8V88.3l0.8-0.8V60l-0.7-0.9V22.3c0-18.5-16.9-17.9-16.9-17.9h-41.4h-40.6
		C184.1,4.4,167.9,3.5,166,20.9z"/>
	<path class="st0" d="M263.4,9.9h-8.2c-1,0-1.9,0.8-1.9,1.9V12v0.2c0,3.9-3.2,7.1-7.1,7.1h-21.4h-21.4c-3.9,0-7.1-3.2-7.1-7.1V12
		v-0.2c0-1-0.8-1.9-1.9-1.9H185c-7.7,0-13.9,6.2-13.9,13.9v200.7c0,7.7,6.2,13.9,13.9,13.9h78.4c7.7,0,13.9-6.2,13.9-13.9V23.8
		C277.2,16.1,271,9.9,263.4,9.9z"/>
	<path class="st0" d="M263.4,9.9h-8.2c-1,0-1.9,0.8-1.9,1.9V12v0.2c0,3.9-3.2,7.1-7.1,7.1h-21.4h-21.4c-3.9,0-7.1-3.2-7.1-7.1V12
		v-0.2c0-1-0.8-1.9-1.9-1.9H185c-7.7,0-13.9,6.2-13.9,13.9v200.7c0,7.7,6.2,13.9,13.9,13.9l92.2-214.5C277.2,16.1,271,9.9,263.4,9.9
		z"/>
</g>
</svg>
