<?xml version="1.0" encoding="utf-8"?>
<!-- Generator: Adobe Illustrator 21.1.0, SVG Export Plug-In . SVG Version: 6.00 Build 0)  -->
<svg version="1.1" id="Capa_1" xmlns="http://www.w3.org/2000/svg" xmlns:xlink="http://www.w3.org/1999/xlink" x="0px" y="0px"
	 viewBox="0 0 494 332" style="enable-background:new 0 0 494 332;" xml:space="preserve">
<style type="text/css">
	.st0{opacity:0.75;fill:#0075BA;}
</style>
<path class="st0" d="M479.7,189.6c0-49.9-40.6-90.5-90.5-90.5c-46.5,0-85,35.3-90,80.5H190.8c-4.2-38.3-32.5-69.5-69.3-78.2V0H80.2
	v101.4c-40,9.4-69.9,45.3-69.9,88.2c0,49.9,40.6,90.5,90.5,90.5c44.2,0,81.2-31.9,89-73.9h110.3c6.6,35.3,33.7,63.4,68.4,71.5V332
	h41.3v-54.3C449.8,268.4,479.7,232.4,479.7,189.6z M100.9,260.1c-38.9,0-70.5-31.6-70.5-70.5S62,119,100.9,119s70.5,31.6,70.5,70.5
	S139.8,260.1,100.9,260.1z M389.2,260.1c-38.9,0-70.5-31.6-70.5-70.5s31.6-70.5,70.5-70.5s70.5,31.6,70.5,70.5
	S428.1,260.1,389.2,260.1z"/>
</svg>
