<?xml version="1.0" encoding="utf-8"?>
<!-- Generator: Adobe Illustrator 21.1.0, SVG Export Plug-In . SVG Version: 6.00 Build 0)  -->
<svg version="1.1" id="Capa_1" xmlns="http://www.w3.org/2000/svg" xmlns:xlink="http://www.w3.org/1999/xlink" x="0px" y="0px"
	 viewBox="0 0 262 503" style="enable-background:new 0 0 262 503;" xml:space="preserve">
<style type="text/css">
	.st0{fill:#2A2B99;}
	.st1{fill:none;stroke:#2A2B99;stroke-width:5;stroke-linecap:round;stroke-miterlimit:10;}
	.st2{fill:#FFFFFF;}
	.st3{font-family:'Avenir-Black';}
	.st4{font-size:22px;}
	.st5{fill:#85CDBD;}
	.st6{fill:#51CAC0;}
	.st7{fill:#0075BA;}
	.st8{fill:#2051AC;}
	.st9{fill:none;stroke:#2A2B99;stroke-width:4;stroke-miterlimit:10;}
</style>
<circle class="st0" cx="220.1" cy="194.8" r="16.4"/>
<path class="st1" d="M134,242v199.6c0,23.9-19.4,43.2-43.2,43.2h0c-23.9,0-43.2-19.4-43.2-43.2V26"/>
<path class="st1" d="M134,259.1V69.3c0-23.9,19.4-43.2,43.2-43.2h0c23.9,0,43.2,19.4,43.2,43.2v415.5"/>
<text transform="matrix(1 0 0 1 213.8157 202.407)" class="st2 st3 st4">5</text>
<circle class="st5" cx="47.1" cy="71" r="16.4"/>
<text transform="matrix(1 0 0 1 39.4822 78.8176)" class="st2 st3 st4">1</text>
<circle class="st6" cx="47.1" cy="194.8" r="16.4"/>
<text transform="matrix(1 0 0 1 40.6489 202.4072)" class="st2 st3 st4">2</text>
<circle class="st7" cx="47.1" cy="365.9" r="16.4"/>
<text transform="matrix(1 0 0 1 40.6489 373.0734)" class="st2 st3 st4">3</text>
<circle class="st8" cx="220.1" cy="71" r="16.4"/>
<text transform="matrix(1 0 0 1 212.3154 78.8176)" class="st2 st3 st4">4</text>
<circle class="st9" cx="47.5" cy="71" r="26"/>
<circle class="st9" cx="47.5" cy="194.8" r="26"/>
<circle class="st9" cx="47.5" cy="365.9" r="26"/>
<circle class="st9" cx="220.1" cy="71" r="26"/>
<circle class="st9" cx="220.1" cy="194.8" r="26"/>
</svg>
