,Partida,Periodo,Descripcion,Unnamed: 0,Ejec_Acum_Real
15,Contraloría General,2017,"Institución independiente del resto de Poderes que se encarga de fiscalizar al Estado. Se enfoca en ver que todo lo que haga el Estado sea legal, sobre todo en temas del uso del dinero público.",2033,333927
24,M. De Agricultura,2017,"Ministerio dedicado a gestionar la agricultura del país, de forma de aumentar la producción agricultora. Además, promueve el mejoramiento de la nutrición de las personas.",120123,71094827
40,M. De Defensa Nacional,2017,"Ministerio dedicado a garantizar la seguridad exterior de Chile, es decir, dedicado a la Defensa ante cualquier ataque extranjero",98775,39436335
49,M. De Desarrollo Social,2017,Ministerio dedicado a diseñar y aplicar políticas que buscan eliminar la pobreza y ayudar a personas que vienen de grupos más vulnerables para que logren integrarse en la sociedad.,154219,123744940
58,"M. De Economía, Fomento Y Turismo",2017,"Ministerio dedicado a modernizar y hacer más competitiva (disminuir los costos) a la estructura productiva del país, es decir, cualquier empresa que se dedique a la producción de bienes (productos). Esto, con la idea de impulsar el crecimiento económico del país a través de políticas públicas",93525,10286327
67,M. De Educación,2017,"Ministerio dedicado a fomentar que las personas de todas las edades se eduquen, con la mejor calidad posible. También protegen derechos de los estudiantes. Coordina todas las políticas que buscan lograr una educación inclusiva y de calidad, desde educación parvularia, hasta educación superior.",987325,301106254
73,M. De Energía,2017,Ministerio encargado de armar y coordinar las políticas que permiten desarrollarse al sector energético. Impulsan políticas como las enfocadas en fomentar el uso de energías renovables como la eólica o solar.,256646,7842010
82,M. De Hacienda,2017,"Ministerio dedicado a manejar los recursos del Estado, de la mejor manera posible, al servicio de los ciudadanos. Entre otras cosas, busca aumentar la recaudación pública, busca planes que puedan llevar a un crecimiento sustentable, trata de modernizar el Estado, coordina la firma de Tratados de Libre Comercio, etc.",227855,3198881
91,M. De Justicia Y Derechos Humanos,2017,"Ministerio que busca modernizar el sistema de justicia, para esto busca políticas que hagan más fácil la protección de los derechos de las personas, la seguridad ciudadana y la reinserción social",276353,38462422
103,M. De Obras Públicas,2017,"Ministerio dedicado a la infraestructura del país, además de encargarse de cuidar y usar bien los recursos hídricos (ríos, lagos, glaciares). Participa en proyectos como la construcción edificios públicos, puentes, carreteras, etc. En temas de recursos hídricos, se encarga de hacer planes para enfrentar la escasez de agua, mejorar las reglas para su uso y también la forma en que se usa, entre otros.",1807979,2011671093
112,M. De Relaciones Exteriores,2017,"Ministerio enfocado en la políticas chilenas ligadas a otros países, como por ejemplo, construir relaciones de paz y cooperación con países vecinos, contribuir a mantener el territorio chileno, defender derechos de chilenos en el extranjero, entre otros.",61793,948538
121,M. De Salud,2017,"Ministerio que busca asegurar la buena salud de los chilenos. Para esto, trabaja mejorando la red nacional de atención en hospitales, crea políticas públicas relacionadas a la salud, entre otras.",7125465,387601824
130,M. De Transportes Y Telecom.,2017,"Ministerio dedicado a políticas enfocadas a empresas de transportes y de comunicaciones, además supervisa que estas empresas se estén comportando de manera correcta, acorde con la ley. Entre otras cosas, el ministerio se relaciona con Transantiago, Metro, compañías de celulares, de internet, etc",1172745,165364468
139,M. De Vivienda Y Urbanismo,2017,"Ministerio que busca que las personas puedan acceder a viviendas de calidad y a desarrollar barrios, de manera que sean equitativos, integrados y sustentables. Todo esto con el objetivo de que los ciudadanos mejoren su calidad de vida y bienestar.",10348933,1716491883
143,M. Del Deporte,2017,"Ministerio que busca desarrollar una cultura deportiva en el país. Incentiva que los ciudadanos hagan deporte, además de apoyar a los deportistas profesionales en el desarrollo de sus actividades.",708301,30332840
152,M. Del Interior Y Seguridad Pública,2017,"Ministerio que busca mantener el orden público, la seguridad y la paz social. Para esto, promueve políticas para el desarrollo de las regiones, propone políticas de migración, fiscaliza que se cumplan normas legales, entre otras.",58495757,1119343337
167,M. Público,2017,"También conocido como Fiscalía de Chile es una Institución independiente de los Poderes, que se dedica a hacer investigaciones penales, propone soluciones a los conflictos penales y tiene presente los intereses de la sociedad y las víctimas.",370545,14506778
184,Poder Judicial,2017,"Institución que representa el tercer poder además del Ejecutivo y Legislativo. Incorpora los distintos tribunales: civil, penal, laboral y familiar. Busca darle a las personas justicia de calidad y rápida.",443135,48216381
198,Tesoro Público,2017,"Son el Servicio Público encargado de recaudar los impuestos, además de vigilar y proteger ese dinero. Además, se encarga de entregar ese dinero a los distintos Organismos del Estado (otros Ministerios, Congreso, etc)",509108,120803403
